Knapsack Problem
 n = 250
 m = 5
 optimalSolution = 0.0
 p_item = [927.0, 366.0, 972.0, 437.0, 925.0, 555.0, 517.0, 775.0, 674.0, 807.0, 806.0, 628.0, 801.0, 545.0, 876.0, 516.0, 902.0, 770.0, 1013.0, 692.0, 485.0, 893.0, 693.0, 718.0, 795.0, 878.0, 661.0, 848.0, 940.0, 495.0, 814.0, 966.0, 1017.0, 893.0, 654.0, 702.0, 1070.0, 1018.0, 894.0, 773.0, 739.0, 528.0, 576.0, 649.0, 545.0, 701.0, 810.0, 883.0, 831.0, 738.0, 1144.0, 1250.0, 593.0, 738.0, 786.0, 547.0, 936.0, 376.0, 769.0, 1017.0, 521.0, 669.0, 931.0, 894.0, 382.0, 964.0, 1168.0, 838.0, 936.0, 957.0, 859.0, 814.0, 715.0, 481.0, 920.0, 473.0, 433.0, 534.0, 639.0, 988.0, 1081.0, 559.0, 583.0, 795.0, 818.0, 1065.0, 284.0, 946.0, 719.0, 742.0, 579.0, 654.0, 501.0, 580.0, 675.0, 688.0, 777.0, 565.0, 675.0, 766.0, 816.0, 749.0, 874.0, 627.0, 749.0, 832.0, 1044.0, 786.0, 834.0, 945.0, 968.0, 805.0, 962.0, 665.0, 991.0, 733.0, 685.0, 372.0, 573.0, 1047.0, 653.0, 1026.0, 518.0, 803.0, 524.0, 418.0, 595.0, 778.0, 534.0, 503.0, 1071.0, 927.0, 385.0, 818.0, 765.0, 751.0, 686.0, 694.0, 954.0, 619.0, 557.0, 752.0, 677.0, 736.0, 1000.0, 529.0, 445.0, 690.0, 875.0, 541.0, 412.0, 842.0, 693.0, 672.0, 762.0, 768.0, 815.0, 651.0, 887.0, 710.0, 298.0, 982.0, 726.0, 518.0, 614.0, 872.0, 698.0, 662.0, 1134.0, 959.0, 840.0, 631.0, 1075.0, 643.0, 843.0, 790.0, 821.0, 972.0, 518.0, 638.0, 911.0, 461.0, 537.0, 568.0, 749.0, 471.0, 604.0, 373.0, 653.0, 913.0, 710.0, 687.0, 757.0, 665.0, 654.0, 646.0, 949.0, 482.0, 661.0, 619.0, 634.0, 1030.0, 613.0, 625.0, 546.0, 801.0, 957.0, 488.0, 988.0, 394.0, 887.0, 996.0, 648.0, 814.0, 694.0, 583.0, 847.0, 638.0, 857.0, 498.0, 931.0, 1070.0, 691.0, 742.0, 649.0, 685.0, 577.0, 680.0, 987.0, 703.0, 757.0, 771.0, 518.0, 440.0, 593.0, 556.0, 978.0, 745.0, 707.0, 576.0, 560.0, 1052.0, 761.0, 645.0, 747.0, 609.0, 960.0, 782.0, 799.0, 647.0]
 x_item = [None, None, None, None, None, None, None, None, None, None, None, None, None, None, None, None, None, None, None, None, None, None, None, None, None, None, None, None, None, None, None, None, None, None, None, None, None, None, None, None, None, None, None, None, None, None, None, None, None, None, None, None, None, None, None, None, None, None, None, None, None, None, None, None, None, None, None, None, None, None, None, None, None, None, None, None, None, None, None, None, None, None, None, None, None, None, None, None, None, None, None, None, None, None, None, None, None, None, None, None, None, None, None, None, None, None, None, None, None, None, None, None, None, None, None, None, None, None, None, None, None, None, None, None, None, None, None, None, None, None, None, None, None, None, None, None, None, None, None, None, None, None, None, None, None, None, None, None, None, None, None, None, None, None, None, None, None, None, None, None, None, None, None, None, None, None, None, None, None, None, None, None, None, None, None, None, None, None, None, None, None, None, None, None, None, None, None, None, None, None, None, None, None, None, None, None, None, None, None, None, None, None, None, None, None, None, None, None, None, None, None, None, None, None, None, None, None, None, None, None, None, None, None, None, None, None, None, None, None, None, None, None, None, None, None, None, None, None, None, None, None, None, None, None, None, None, None, None, None, None]
 b_dimension = [31976.0, 30032.0, 31070.0, 31376.0, 32346.0]
 w_item_dimension = [[440.0, 519.0, 373.0, 219.0, 859.0], [438.0, 234.0, 224.0, 798.0, 82.0], [667.0, 110.0, 496.0, 639.0, 607.0], [909.0, 374.0, 88.0, 682.0, 130.0], [758.0, 779.0, 826.0, 354.0, 702.0], [316.0, 358.0, 432.0, 134.0, 894.0], [356.0, 209.0, 280.0, 463.0, 512.0], [753.0, 629.0, 85.0, 706.0, 314.0], [915.0, 243.0, 11.0, 460.0, 983.0], [725.0, 500.0, 236.0, 918.0, 815.0], [515.0, 825.0, 16.0, 119.0, 787.0], [1000.0, 48.0, 274.0, 818.0, 797.0], [177.0, 102.0, 742.0, 412.0, 686.0], [370.0, 343.0, 720.0, 596.0, 169.0], [418.0, 588.0, 63.0, 412.0, 667.0], [562.0, 13.0, 983.0, 669.0, 15.0], [452.0, 635.0, 745.0, 921.0, 103.0], [288.0, 347.0, 81.0, 353.0, 465.0], [121.0, 779.0, 996.0, 559.0, 972.0], [972.0, 237.0, 664.0, 848.0, 671.0], [555.0, 50.0, 193.0, 111.0, 833.0], [905.0, 873.0, 17.0, 493.0, 578.0], [241.0, 465.0, 374.0, 340.0, 549.0], [268.0, 277.0, 858.0, 549.0, 269.0], [743.0, 435.0, 697.0, 94.0, 948.0], [256.0, 255.0, 172.0, 621.0, 683.0], [366.0, 823.0, 885.0, 250.0, 675.0], [220.0, 727.0, 756.0, 177.0, 704.0], [285.0, 826.0, 635.0, 253.0, 596.0], [526.0, 425.0, 238.0, 205.0, 125.0], [642.0, 117.0, 34.0, 219.0, 916.0], [770.0, 645.0, 646.0, 615.0, 351.0], [523.0, 896.0, 855.0, 444.0, 816.0], [487.0, 442.0, 593.0, 651.0, 861.0], [537.0, 472.0, 423.0, 944.0, 560.0], [558.0, 323.0, 434.0, 843.0, 291.0], [413.0, 840.0, 623.0, 972.0, 96.0], [579.0, 673.0, 631.0, 816.0, 934.0], [377.0, 78.0, 430.0, 940.0, 784.0], [496.0, 906.0, 389.0, 407.0, 462.0], [469.0, 422.0, 694.0, 88.0, 450.0], [382.0, 452.0, 507.0, 967.0, 228.0], [277.0, 322.0, 914.0, 13.0, 771.0], [796.0, 635.0, 380.0, 421.0, 671.0], [811.0, 496.0, 28.0, 256.0, 364.0], [607.0, 29.0, 752.0, 195.0, 304.0], [77.0, 183.0, 552.0, 473.0, 572.0], [72.0, 130.0, 822.0, 984.0, 928.0], [594.0, 66.0, 291.0, 384.0, 575.0], [969.0, 495.0, 327.0, 27.0, 151.0], [40.0, 943.0, 876.0, 894.0, 894.0], [903.0, 678.0, 918.0, 699.0, 766.0], [55.0, 362.0, 78.0, 213.0, 96.0], [459.0, 630.0, 505.0, 573.0, 425.0], [621.0, 825.0, 858.0, 840.0, 307.0], [293.0, 617.0, 325.0, 94.0, 286.0], [495.0, 208.0, 214.0, 803.0, 965.0], [55.0, 73.0, 72.0, 835.0, 650.0], [996.0, 500.0, 811.0, 441.0, 694.0], [225.0, 908.0, 73.0, 717.0, 839.0], [96.0, 235.0, 540.0, 479.0, 257.0], [253.0, 601.0, 766.0, 191.0, 74.0], [567.0, 263.0, 196.0, 378.0, 799.0], [601.0, 353.0, 936.0, 927.0, 451.0], [179.0, 3.0, 150.0, 712.0, 792.0], [749.0, 975.0, 738.0, 768.0, 132.0], [991.0, 988.0, 973.0, 563.0, 680.0], [849.0, 725.0, 154.0, 622.0, 997.0], [396.0, 955.0, 642.0, 60.0, 721.0], [527.0, 472.0, 694.0, 394.0, 681.0], [105.0, 991.0, 935.0, 60.0, 121.0], [705.0, 59.0, 649.0, 387.0, 154.0], [794.0, 34.0, 972.0, 123.0, 415.0], [258.0, 167.0, 306.0, 391.0, 555.0], [957.0, 730.0, 178.0, 922.0, 320.0], [473.0, 82.0, 154.0, 519.0, 120.0], [500.0, 438.0, 63.0, 310.0, 750.0], [614.0, 549.0, 630.0, 151.0, 225.0], [602.0, 630.0, 625.0, 336.0, 438.0], [22.0, 465.0, 777.0, 666.0, 679.0], [890.0, 791.0, 565.0, 294.0, 389.0], [987.0, 827.0, 377.0, 320.0, 197.0], [283.0, 889.0, 375.0, 683.0, 649.0], [505.0, 632.0, 678.0, 828.0, 385.0], [743.0, 372.0, 662.0, 284.0, 832.0], [998.0, 452.0, 749.0, 351.0, 478.0], [287.0, 26.0, 317.0, 419.0, 53.0], [180.0, 863.0, 513.0, 852.0, 339.0], [727.0, 209.0, 474.0, 204.0, 603.0], [606.0, 819.0, 462.0, 458.0, 94.0], [268.0, 238.0, 35.0, 410.0, 531.0], [580.0, 387.0, 774.0, 780.0, 24.0], [932.0, 59.0, 815.0, 56.0, 582.0], [794.0, 680.0, 71.0, 203.0, 411.0], [913.0, 256.0, 258.0, 775.0, 445.0], [964.0, 251.0, 409.0, 9.0, 330.0], [185.0, 185.0, 145.0, 877.0, 395.0], [729.0, 65.0, 27.0, 124.0, 695.0], [462.0, 778.0, 531.0, 776.0, 294.0], [391.0, 822.0, 352.0, 515.0, 800.0], [403.0, 843.0, 645.0, 184.0, 80.0], [455.0, 794.0, 388.0, 946.0, 175.0], [708.0, 998.0, 410.0, 985.0, 419.0], [164.0, 707.0, 443.0, 824.0, 174.0], [34.0, 623.0, 772.0, 527.0, 196.0], [786.0, 293.0, 214.0, 564.0, 99.0], [764.0, 555.0, 104.0, 950.0, 809.0], [327.0, 957.0, 980.0, 385.0, 800.0], [667.0, 135.0, 703.0, 767.0, 812.0], [752.0, 800.0, 240.0, 848.0, 449.0], [920.0, 416.0, 867.0, 969.0, 30.0], [860.0, 565.0, 70.0, 642.0, 756.0], [963.0, 132.0, 879.0, 217.0, 691.0], [278.0, 217.0, 608.0, 890.0, 450.0], [875.0, 850.0, 509.0, 589.0, 240.0], [874.0, 38.0, 343.0, 698.0, 186.0], [811.0, 816.0, 242.0, 947.0, 123.0], [57.0, 57.0, 331.0, 627.0, 474.0], [274.0, 341.0, 575.0, 199.0, 702.0], [776.0, 830.0, 406.0, 775.0, 196.0], [654.0, 271.0, 284.0, 888.0, 406.0], [693.0, 395.0, 855.0, 699.0, 520.0], [63.0, 36.0, 100.0, 31.0, 920.0], [683.0, 505.0, 923.0, 526.0, 637.0], [795.0, 603.0, 235.0, 151.0, 267.0], [670.0, 852.0, 241.0, 31.0, 129.0], [90.0, 121.0, 94.0, 258.0, 22.0], [683.0, 933.0, 544.0, 645.0, 539.0], [83.0, 362.0, 112.0, 524.0, 73.0], [98.0, 456.0, 846.0, 593.0, 517.0], [798.0, 651.0, 745.0, 933.0, 379.0], [769.0, 478.0, 724.0, 185.0, 764.0], [50.0, 24.0, 231.0, 329.0, 293.0], [139.0, 809.0, 346.0, 690.0, 774.0], [316.0, 218.0, 656.0, 329.0, 376.0], [249.0, 327.0, 553.0, 446.0, 970.0], [942.0, 76.0, 246.0, 986.0, 955.0], [102.0, 454.0, 905.0, 295.0, 332.0], [553.0, 988.0, 483.0, 505.0, 32.0], [166.0, 917.0, 530.0, 298.0, 271.0], [120.0, 292.0, 645.0, 467.0, 206.0], [164.0, 428.0, 641.0, 646.0, 746.0], [688.0, 333.0, 974.0, 101.0, 847.0], [554.0, 836.0, 135.0, 320.0, 239.0], [813.0, 447.0, 305.0, 290.0, 696.0], [251.0, 511.0, 179.0, 519.0, 230.0], [184.0, 208.0, 328.0, 116.0, 81.0], [546.0, 77.0, 675.0, 942.0, 639.0], [371.0, 462.0, 416.0, 243.0, 968.0], [188.0, 759.0, 238.0, 411.0, 164.0], [108.0, 273.0, 336.0, 291.0, 428.0], [291.0, 430.0, 356.0, 829.0, 913.0], [796.0, 873.0, 604.0, 176.0, 919.0], [803.0, 683.0, 778.0, 126.0, 135.0], [677.0, 582.0, 47.0, 711.0, 941.0], [984.0, 160.0, 640.0, 980.0, 724.0], [373.0, 971.0, 648.0, 509.0, 464.0], [649.0, 598.0, 533.0, 372.0, 540.0], [304.0, 720.0, 222.0, 596.0, 892.0], [942.0, 695.0, 495.0, 171.0, 454.0], [259.0, 173.0, 316.0, 37.0, 275.0], [233.0, 100.0, 896.0, 333.0, 966.0], [726.0, 637.0, 758.0, 924.0, 22.0], [237.0, 36.0, 93.0, 464.0, 697.0], [714.0, 212.0, 536.0, 54.0, 240.0], [676.0, 739.0, 903.0, 424.0, 160.0], [855.0, 379.0, 817.0, 398.0, 414.0], [231.0, 801.0, 508.0, 996.0, 278.0], [340.0, 930.0, 698.0, 989.0, 923.0], [508.0, 786.0, 994.0, 448.0, 895.0], [526.0, 445.0, 140.0, 764.0, 891.0], [238.0, 561.0, 140.0, 867.0, 605.0], [964.0, 876.0, 656.0, 897.0, 813.0], [547.0, 282.0, 286.0, 881.0, 668.0], [362.0, 13.0, 57.0, 843.0, 951.0], [503.0, 390.0, 378.0, 965.0, 567.0], [744.0, 280.0, 764.0, 376.0, 692.0], [946.0, 534.0, 803.0, 817.0, 722.0], [298.0, 341.0, 70.0, 376.0, 933.0], [569.0, 23.0, 561.0, 55.0, 585.0], [992.0, 269.0, 394.0, 92.0, 823.0], [496.0, 228.0, 387.0, 686.0, 84.0], [46.0, 469.0, 951.0, 191.0, 672.0], [988.0, 280.0, 298.0, 73.0, 674.0], [514.0, 840.0, 618.0, 419.0, 292.0], [288.0, 1.0, 544.0, 436.0, 780.0], [286.0, 484.0, 716.0, 235.0, 323.0], [65.0, 32.0, 405.0, 405.0, 847.0], [808.0, 762.0, 206.0, 826.0, 246.0], [586.0, 526.0, 371.0, 435.0, 738.0], [723.0, 455.0, 346.0, 316.0, 749.0], [285.0, 928.0, 461.0, 477.0, 810.0], [936.0, 835.0, 708.0, 527.0, 591.0], [837.0, 693.0, 899.0, 169.0, 579.0], [87.0, 690.0, 979.0, 12.0, 424.0], [100.0, 624.0, 645.0, 585.0, 79.0], [153.0, 685.0, 536.0, 872.0, 953.0], [177.0, 169.0, 331.0, 853.0, 261.0], [214.0, 746.0, 453.0, 183.0, 454.0], [672.0, 481.0, 813.0, 538.0, 194.0], [590.0, 368.0, 656.0, 983.0, 405.0], [942.0, 864.0, 490.0, 15.0, 828.0], [65.0, 798.0, 394.0, 46.0, 170.0], [767.0, 346.0, 202.0, 403.0, 81.0], [149.0, 121.0, 575.0, 658.0, 967.0], [612.0, 498.0, 801.0, 97.0, 86.0], [894.0, 161.0, 341.0, 531.0, 831.0], [397.0, 508.0, 488.0, 88.0, 774.0], [597.0, 825.0, 702.0, 604.0, 735.0], [569.0, 86.0, 511.0, 518.0, 46.0], [344.0, 312.0, 776.0, 481.0, 972.0], [199.0, 932.0, 944.0, 237.0, 449.0], [697.0, 766.0, 919.0, 758.0, 65.0], [405.0, 497.0, 869.0, 412.0, 91.0], [912.0, 811.0, 421.0, 155.0, 370.0], [258.0, 931.0, 74.0, 40.0, 790.0], [470.0, 412.0, 431.0, 467.0, 215.0], [669.0, 950.0, 248.0, 379.0, 926.0], [177.0, 574.0, 906.0, 153.0, 907.0], [791.0, 48.0, 58.0, 162.0, 772.0], [470.0, 306.0, 438.0, 373.0, 676.0], [353.0, 836.0, 577.0, 634.0, 838.0], [316.0, 565.0, 748.0, 794.0, 714.0], [848.0, 264.0, 546.0, 232.0, 473.0], [642.0, 212.0, 391.0, 139.0, 151.0], [622.0, 138.0, 662.0, 750.0, 59.0], [137.0, 449.0, 79.0, 996.0, 969.0], [871.0, 459.0, 618.0, 411.0, 670.0], [889.0, 452.0, 280.0, 871.0, 921.0], [306.0, 580.0, 535.0, 657.0, 788.0], [312.0, 885.0, 467.0, 901.0, 215.0], [26.0, 814.0, 946.0, 385.0, 710.0], [428.0, 687.0, 105.0, 217.0, 7.0], [508.0, 242.0, 112.0, 812.0, 105.0], [898.0, 71.0, 527.0, 671.0, 303.0], [488.0, 279.0, 235.0, 386.0, 957.0], [621.0, 753.0, 549.0, 462.0, 390.0], [159.0, 340.0, 514.0, 117.0, 888.0], [963.0, 15.0, 930.0, 957.0, 543.0], [283.0, 101.0, 825.0, 754.0, 786.0], [586.0, 384.0, 953.0, 366.0, 26.0], [499.0, 944.0, 816.0, 951.0, 489.0], [172.0, 873.0, 285.0, 152.0, 253.0], [435.0, 107.0, 898.0, 857.0, 557.0], [662.0, 209.0, 575.0, 688.0, 60.0], [817.0, 423.0, 169.0, 293.0, 288.0], [489.0, 90.0, 858.0, 823.0, 721.0], [391.0, 800.0, 267.0, 588.0, 631.0], [402.0, 245.0, 138.0, 430.0, 983.0], [170.0, 570.0, 538.0, 604.0, 517.0]]

==== Results ====
Cost: 58951.0
Runtime: 17.316570043563843
Vars:
x_0:1.0
x_1:0.0
x_2:1.0
x_3:0.0
x_4:0.0
x_5:0.0
x_6:0.0
x_7:1.0
x_8:0.0
x_9:0.0
x_10:1.0
x_11:0.0
x_12:1.0
x_13:0.0
x_14:1.0
x_15:0.0
x_16:1.0
x_17:1.0
x_18:0.0
x_19:0.0
x_20:0.0
x_21:0.0
x_22:1.0
x_23:0.0
x_24:0.0
x_25:1.0
x_26:0.0
x_27:0.0
x_28:1.0
x_29:0.0
x_30:1.0
x_31:0.0
x_32:0.0
x_33:0.0
x_34:0.0
x_35:0.0
x_36:1.0
x_37:0.0
x_38:1.0
x_39:0.0
x_40:0.0
x_41:0.0
x_42:0.0
x_43:0.0
x_44:0.0
x_45:1.0
x_46:1.0
x_47:0.0
x_48:1.0
x_49:1.0
x_50:0.0
x_51:0.0
x_52:1.0
x_53:0.0
x_54:0.0
x_55:0.0
x_56:1.0
x_57:0.0
x_58:0.0
x_59:1.0
x_60:1.0
x_61:1.0
x_62:1.0
x_63:0.0
x_64:0.0
x_65:0.0
x_66:0.0
x_67:0.0
x_68:0.0
x_69:0.0
x_70:1.0
x_71:1.0
x_72:0.0
x_73:0.0
x_74:0.0
x_75:1.0
x_76:0.0
x_77:0.0
x_78:0.0
x_79:1.0
x_80:1.0
x_81:0.0
x_82:0.0
x_83:0.0
x_84:0.0
x_85:1.0
x_86:0.0
x_87:1.0
x_88:0.0
x_89:0.0
x_90:1.0
x_91:0.0
x_92:0.0
x_93:0.0
x_94:0.0
x_95:0.0
x_96:1.0
x_97:0.0
x_98:0.0
x_99:0.0
x_100:1.0
x_101:0.0
x_102:0.0
x_103:0.0
x_104:1.0
x_105:1.0
x_106:1.0
x_107:0.0
x_108:0.0
x_109:0.0
x_110:0.0
x_111:0.0
x_112:0.0
x_113:0.0
x_114:0.0
x_115:1.0
x_116:0.0
x_117:0.0
x_118:0.0
x_119:1.0
x_120:0.0
x_121:1.0
x_122:1.0
x_123:0.0
x_124:0.0
x_125:0.0
x_126:1.0
x_127:0.0
x_128:1.0
x_129:0.0
x_130:0.0
x_131:0.0
x_132:1.0
x_133:0.0
x_134:1.0
x_135:0.0
x_136:0.0
x_137:0.0
x_138:1.0
x_139:0.0
x_140:1.0
x_141:0.0
x_142:0.0
x_143:1.0
x_144:1.0
x_145:0.0
x_146:1.0
x_147:0.0
x_148:1.0
x_149:0.0
x_150:0.0
x_151:0.0
x_152:0.0
x_153:0.0
x_154:0.0
x_155:0.0
x_156:0.0
x_157:0.0
x_158:0.0
x_159:0.0
x_160:0.0
x_161:1.0
x_162:0.0
x_163:1.0
x_164:1.0
x_165:0.0
x_166:0.0
x_167:0.0
x_168:0.0
x_169:0.0
x_170:0.0
x_171:0.0
x_172:0.0
x_173:0.0
x_174:1.0
x_175:0.0
x_176:0.0
x_177:0.0
x_178:0.0
x_179:1.0
x_180:1.0
x_181:0.0
x_182:0.0
x_183:0.0
x_184:0.0
x_185:0.0
x_186:0.0
x_187:0.0
x_188:0.0
x_189:0.0
x_190:0.0
x_191:0.0
x_192:0.0
x_193:0.0
x_194:0.0
x_195:1.0
x_196:0.0
x_197:0.0
x_198:0.0
x_199:0.0
x_200:0.0
x_201:0.0
x_202:1.0
x_203:1.0
x_204:0.0
x_205:1.0
x_206:1.0
x_207:0.0
x_208:0.0
x_209:0.0
x_210:0.0
x_211:1.0
x_212:0.0
x_213:1.0
x_214:0.0
x_215:0.0
x_216:1.0
x_217:0.0
x_218:0.0
x_219:0.0
x_220:1.0
x_221:0.0
x_222:0.0
x_223:0.0
x_224:1.0
x_225:0.0
x_226:0.0
x_227:0.0
x_228:0.0
x_229:0.0
x_230:0.0
x_231:0.0
x_232:1.0
x_233:0.0
x_234:0.0
x_235:0.0
x_236:1.0
x_237:1.0
x_238:0.0
x_239:0.0
x_240:0.0
x_241:0.0
x_242:1.0
x_243:0.0
x_244:1.0
x_245:0.0
x_246:1.0
x_247:0.0
x_248:1.0
x_249:0.0