Knapsack Problem
 n = 250
 m = 30
 optimalSolution = 0.0
 p_item = [661.0, 407.0, 663.0, 745.0, 515.0, 670.0, 969.0, 505.0, 783.0, 600.0, 709.0, 691.0, 1097.0, 1004.0, 878.0, 492.0, 510.0, 615.0, 536.0, 675.0, 709.0, 615.0, 906.0, 890.0, 552.0, 941.0, 927.0, 952.0, 893.0, 634.0, 819.0, 661.0, 801.0, 647.0, 725.0, 489.0, 877.0, 767.0, 786.0, 709.0, 842.0, 866.0, 661.0, 462.0, 648.0, 676.0, 597.0, 687.0, 804.0, 681.0, 514.0, 712.0, 675.0, 695.0, 954.0, 533.0, 718.0, 1047.0, 868.0, 514.0, 912.0, 805.0, 798.0, 753.0, 833.0, 702.0, 685.0, 579.0, 507.0, 701.0, 855.0, 789.0, 799.0, 964.0, 690.0, 861.0, 433.0, 620.0, 679.0, 549.0, 868.0, 894.0, 544.0, 683.0, 513.0, 626.0, 672.0, 479.0, 740.0, 618.0, 724.0, 1005.0, 675.0, 851.0, 890.0, 975.0, 926.0, 879.0, 867.0, 674.0, 811.0, 1083.0, 973.0, 909.0, 735.0, 687.0, 881.0, 573.0, 679.0, 623.0, 880.0, 645.0, 468.0, 921.0, 723.0, 445.0, 618.0, 667.0, 727.0, 990.0, 653.0, 572.0, 716.0, 740.0, 728.0, 1005.0, 458.0, 980.0, 480.0, 1066.0, 964.0, 959.0, 476.0, 775.0, 544.0, 854.0, 533.0, 980.0, 695.0, 899.0, 776.0, 1010.0, 1065.0, 636.0, 478.0, 950.0, 765.0, 955.0, 633.0, 609.0, 602.0, 749.0, 609.0, 564.0, 694.0, 964.0, 990.0, 675.0, 858.0, 638.0, 504.0, 909.0, 548.0, 580.0, 537.0, 990.0, 642.0, 895.0, 792.0, 810.0, 647.0, 691.0, 1035.0, 538.0, 462.0, 960.0, 504.0, 499.0, 706.0, 741.0, 787.0, 905.0, 847.0, 599.0, 710.0, 620.0, 1037.0, 556.0, 731.0, 902.0, 490.0, 498.0, 939.0, 789.0, 549.0, 564.0, 866.0, 1049.0, 398.0, 962.0, 654.0, 767.0, 950.0, 704.0, 901.0, 991.0, 722.0, 911.0, 708.0, 573.0, 784.0, 912.0, 806.0, 571.0, 582.0, 563.0, 572.0, 762.0, 534.0, 759.0, 791.0, 687.0, 861.0, 727.0, 620.0, 895.0, 927.0, 704.0, 927.0, 772.0, 465.0, 775.0, 923.0, 976.0, 650.0, 913.0, 702.0, 907.0, 737.0, 659.0, 853.0, 877.0, 605.0, 782.0, 835.0, 599.0, 770.0, 910.0, 518.0, 940.0]
 x_item = [None, None, None, None, None, None, None, None, None, None, None, None, None, None, None, None, None, None, None, None, None, None, None, None, None, None, None, None, None, None, None, None, None, None, None, None, None, None, None, None, None, None, None, None, None, None, None, None, None, None, None, None, None, None, None, None, None, None, None, None, None, None, None, None, None, None, None, None, None, None, None, None, None, None, None, None, None, None, None, None, None, None, None, None, None, None, None, None, None, None, None, None, None, None, None, None, None, None, None, None, None, None, None, None, None, None, None, None, None, None, None, None, None, None, None, None, None, None, None, None, None, None, None, None, None, None, None, None, None, None, None, None, None, None, None, None, None, None, None, None, None, None, None, None, None, None, None, None, None, None, None, None, None, None, None, None, None, None, None, None, None, None, None, None, None, None, None, None, None, None, None, None, None, None, None, None, None, None, None, None, None, None, None, None, None, None, None, None, None, None, None, None, None, None, None, None, None, None, None, None, None, None, None, None, None, None, None, None, None, None, None, None, None, None, None, None, None, None, None, None, None, None, None, None, None, None, None, None, None, None, None, None, None, None, None, None, None, None, None, None, None, None, None, None, None, None, None, None, None, None]
 b_dimension = [32120.0, 31901.0, 31985.0, 30958.0, 31041.0, 30588.0, 30187.0, 31678.0, 30212.0, 29614.0, 32195.0, 31954.0, 33901.0, 29948.0, 28439.0, 29787.0, 30108.0, 30416.0, 30800.0, 31813.0, 31049.0, 32588.0, 31204.0, 33554.0, 31267.0, 32017.0, 31098.0, 33621.0, 29037.0, 30250.0]
 w_item_dimension = [[990.0, 382.0, 738.0, 546.0, 340.0, 291.0, 750.0, 482.0, 865.0, 586.0, 260.0, 482.0, 292.0, 972.0, 898.0, 64.0, 678.0, 158.0, 438.0, 703.0, 606.0, 275.0, 415.0, 424.0, 959.0, 335.0, 379.0, 221.0, 686.0, 923.0], [3.0, 677.0, 159.0, 90.0, 435.0, 33.0, 77.0, 806.0, 309.0, 291.0, 223.0, 621.0, 449.0, 504.0, 587.0, 395.0, 688.0, 44.0, 64.0, 305.0, 11.0, 979.0, 437.0, 610.0, 131.0, 447.0, 257.0, 693.0, 832.0, 774.0], [809.0, 228.0, 329.0, 153.0, 226.0, 263.0, 268.0, 89.0, 94.0, 550.0, 549.0, 155.0, 673.0, 303.0, 695.0, 48.0, 230.0, 823.0, 706.0, 984.0, 42.0, 463.0, 26.0, 235.0, 614.0, 571.0, 628.0, 410.0, 656.0, 267.0], [515.0, 468.0, 125.0, 696.0, 156.0, 693.0, 939.0, 463.0, 930.0, 973.0, 440.0, 248.0, 336.0, 692.0, 631.0, 49.0, 474.0, 848.0, 986.0, 901.0, 572.0, 857.0, 825.0, 828.0, 554.0, 957.0, 257.0, 848.0, 71.0, 355.0], [227.0, 194.0, 298.0, 863.0, 177.0, 309.0, 227.0, 65.0, 68.0, 920.0, 602.0, 117.0, 42.0, 459.0, 192.0, 927.0, 931.0, 650.0, 963.0, 377.0, 284.0, 68.0, 287.0, 824.0, 829.0, 372.0, 50.0, 901.0, 234.0, 586.0], [393.0, 4.0, 226.0, 583.0, 379.0, 439.0, 482.0, 436.0, 562.0, 236.0, 944.0, 576.0, 420.0, 895.0, 535.0, 573.0, 568.0, 233.0, 317.0, 64.0, 100.0, 563.0, 191.0, 539.0, 960.0, 872.0, 33.0, 964.0, 2.0, 802.0], [887.0, 637.0, 127.0, 254.0, 673.0, 131.0, 991.0, 80.0, 379.0, 605.0, 277.0, 857.0, 695.0, 328.0, 75.0, 941.0, 95.0, 574.0, 380.0, 44.0, 444.0, 583.0, 284.0, 538.0, 526.0, 260.0, 128.0, 953.0, 768.0, 716.0], [679.0, 464.0, 834.0, 427.0, 649.0, 32.0, 142.0, 991.0, 291.0, 671.0, 411.0, 125.0, 332.0, 124.0, 249.0, 111.0, 712.0, 432.0, 168.0, 967.0, 744.0, 76.0, 598.0, 810.0, 646.0, 249.0, 863.0, 889.0, 675.0, 39.0], [477.0, 389.0, 306.0, 560.0, 152.0, 933.0, 600.0, 697.0, 456.0, 892.0, 4.0, 259.0, 712.0, 127.0, 56.0, 779.0, 580.0, 15.0, 974.0, 632.0, 993.0, 83.0, 8.0, 612.0, 996.0, 914.0, 771.0, 344.0, 184.0, 579.0], [570.0, 985.0, 243.0, 540.0, 711.0, 846.0, 800.0, 883.0, 759.0, 852.0, 966.0, 502.0, 309.0, 957.0, 97.0, 687.0, 471.0, 312.0, 675.0, 879.0, 377.0, 709.0, 663.0, 265.0, 504.0, 627.0, 594.0, 30.0, 81.0, 324.0], [286.0, 415.0, 823.0, 757.0, 261.0, 67.0, 443.0, 811.0, 183.0, 600.0, 851.0, 738.0, 406.0, 533.0, 8.0, 100.0, 167.0, 673.0, 68.0, 792.0, 652.0, 448.0, 176.0, 16.0, 586.0, 603.0, 765.0, 699.0, 947.0, 334.0], [133.0, 241.0, 829.0, 424.0, 578.0, 714.0, 614.0, 709.0, 707.0, 908.0, 926.0, 140.0, 735.0, 476.0, 151.0, 888.0, 952.0, 659.0, 586.0, 319.0, 930.0, 998.0, 243.0, 389.0, 921.0, 405.0, 89.0, 857.0, 634.0, 222.0], [544.0, 996.0, 960.0, 916.0, 310.0, 532.0, 727.0, 783.0, 263.0, 391.0, 645.0, 781.0, 754.0, 545.0, 600.0, 613.0, 172.0, 722.0, 547.0, 567.0, 861.0, 876.0, 380.0, 922.0, 802.0, 319.0, 725.0, 885.0, 267.0, 680.0], [706.0, 608.0, 512.0, 410.0, 730.0, 332.0, 994.0, 766.0, 862.0, 988.0, 462.0, 895.0, 422.0, 94.0, 579.0, 493.0, 527.0, 745.0, 828.0, 680.0, 10.0, 850.0, 184.0, 550.0, 860.0, 518.0, 91.0, 842.0, 22.0, 485.0], [397.0, 660.0, 796.0, 107.0, 684.0, 132.0, 804.0, 492.0, 154.0, 124.0, 558.0, 519.0, 806.0, 256.0, 360.0, 509.0, 179.0, 229.0, 396.0, 906.0, 25.0, 382.0, 671.0, 318.0, 955.0, 305.0, 154.0, 87.0, 776.0, 577.0], [962.0, 329.0, 27.0, 319.0, 262.0, 307.0, 340.0, 30.0, 663.0, 372.0, 562.0, 428.0, 680.0, 174.0, 175.0, 369.0, 123.0, 705.0, 305.0, 291.0, 9.0, 496.0, 82.0, 465.0, 548.0, 408.0, 72.0, 955.0, 544.0, 646.0], [809.0, 669.0, 415.0, 640.0, 44.0, 494.0, 353.0, 189.0, 63.0, 664.0, 89.0, 491.0, 286.0, 490.0, 676.0, 33.0, 69.0, 307.0, 130.0, 634.0, 465.0, 299.0, 831.0, 7.0, 46.0, 633.0, 541.0, 362.0, 241.0, 93.0], [247.0, 349.0, 941.0, 739.0, 938.0, 953.0, 93.0, 770.0, 892.0, 246.0, 82.0, 11.0, 684.0, 874.0, 665.0, 274.0, 268.0, 775.0, 475.0, 31.0, 317.0, 761.0, 733.0, 526.0, 840.0, 772.0, 551.0, 246.0, 708.0, 869.0], [214.0, 969.0, 262.0, 631.0, 652.0, 42.0, 259.0, 263.0, 107.0, 201.0, 887.0, 425.0, 768.0, 390.0, 703.0, 13.0, 492.0, 263.0, 81.0, 500.0, 621.0, 331.0, 136.0, 365.0, 859.0, 414.0, 709.0, 563.0, 278.0, 994.0], [212.0, 450.0, 149.0, 668.0, 463.0, 589.0, 427.0, 839.0, 426.0, 208.0, 416.0, 200.0, 496.0, 403.0, 733.0, 566.0, 989.0, 587.0, 781.0, 396.0, 868.0, 713.0, 376.0, 89.0, 122.0, 410.0, 283.0, 176.0, 906.0, 943.0], [96.0, 99.0, 615.0, 168.0, 769.0, 68.0, 763.0, 975.0, 844.0, 311.0, 460.0, 532.0, 997.0, 628.0, 692.0, 814.0, 333.0, 335.0, 130.0, 45.0, 289.0, 558.0, 519.0, 711.0, 760.0, 189.0, 299.0, 470.0, 191.0, 828.0], [635.0, 467.0, 276.0, 929.0, 983.0, 884.0, 3.0, 389.0, 673.0, 31.0, 52.0, 347.0, 413.0, 727.0, 364.0, 740.0, 29.0, 763.0, 40.0, 742.0, 982.0, 895.0, 779.0, 515.0, 16.0, 964.0, 828.0, 177.0, 559.0, 317.0], [455.0, 908.0, 703.0, 594.0, 780.0, 64.0, 236.0, 243.0, 219.0, 886.0, 181.0, 437.0, 278.0, 382.0, 43.0, 607.0, 206.0, 465.0, 251.0, 743.0, 485.0, 886.0, 759.0, 107.0, 467.0, 279.0, 868.0, 11.0, 67.0, 346.0], [774.0, 613.0, 328.0, 13.0, 21.0, 824.0, 460.0, 108.0, 193.0, 319.0, 341.0, 140.0, 780.0, 631.0, 513.0, 274.0, 785.0, 501.0, 329.0, 767.0, 856.0, 366.0, 308.0, 287.0, 469.0, 830.0, 914.0, 452.0, 95.0, 875.0], [55.0, 971.0, 567.0, 819.0, 786.0, 9.0, 122.0, 758.0, 410.0, 331.0, 799.0, 307.0, 313.0, 376.0, 903.0, 536.0, 469.0, 383.0, 582.0, 844.0, 569.0, 447.0, 820.0, 665.0, 210.0, 1.0, 974.0, 367.0, 140.0, 978.0], [689.0, 680.0, 407.0, 822.0, 221.0, 279.0, 61.0, 454.0, 856.0, 411.0, 318.0, 865.0, 174.0, 36.0, 588.0, 232.0, 373.0, 793.0, 115.0, 342.0, 888.0, 252.0, 900.0, 843.0, 614.0, 834.0, 444.0, 691.0, 794.0, 110.0], [67.0, 692.0, 198.0, 710.0, 176.0, 195.0, 616.0, 951.0, 118.0, 560.0, 304.0, 904.0, 951.0, 576.0, 631.0, 924.0, 856.0, 434.0, 615.0, 954.0, 98.0, 492.0, 599.0, 612.0, 644.0, 773.0, 756.0, 648.0, 534.0, 219.0], [498.0, 576.0, 919.0, 930.0, 443.0, 987.0, 391.0, 854.0, 819.0, 479.0, 811.0, 89.0, 265.0, 443.0, 697.0, 165.0, 478.0, 366.0, 591.0, 530.0, 144.0, 501.0, 825.0, 746.0, 993.0, 370.0, 264.0, 285.0, 230.0, 696.0], [409.0, 122.0, 243.0, 525.0, 394.0, 149.0, 255.0, 390.0, 105.0, 437.0, 186.0, 638.0, 550.0, 349.0, 466.0, 967.0, 229.0, 430.0, 729.0, 903.0, 648.0, 827.0, 959.0, 398.0, 178.0, 458.0, 620.0, 962.0, 684.0, 16.0], [223.0, 266.0, 518.0, 127.0, 745.0, 426.0, 370.0, 156.0, 743.0, 637.0, 742.0, 280.0, 602.0, 522.0, 503.0, 172.0, 823.0, 973.0, 570.0, 136.0, 822.0, 349.0, 220.0, 626.0, 486.0, 592.0, 648.0, 333.0, 93.0, 924.0], [134.0, 26.0, 341.0, 9.0, 573.0, 866.0, 122.0, 454.0, 700.0, 74.0, 895.0, 962.0, 788.0, 981.0, 275.0, 196.0, 486.0, 641.0, 654.0, 337.0, 147.0, 425.0, 949.0, 1.0, 829.0, 819.0, 19.0, 690.0, 429.0, 130.0], [93.0, 297.0, 393.0, 863.0, 915.0, 457.0, 380.0, 128.0, 701.0, 334.0, 239.0, 480.0, 854.0, 904.0, 500.0, 33.0, 415.0, 56.0, 657.0, 95.0, 714.0, 128.0, 888.0, 555.0, 305.0, 511.0, 742.0, 249.0, 567.0, 232.0], [987.0, 187.0, 27.0, 132.0, 386.0, 955.0, 57.0, 767.0, 830.0, 369.0, 544.0, 805.0, 360.0, 253.0, 694.0, 181.0, 625.0, 158.0, 483.0, 459.0, 839.0, 459.0, 187.0, 821.0, 29.0, 604.0, 263.0, 791.0, 257.0, 249.0], [1000.0, 992.0, 841.0, 840.0, 581.0, 393.0, 154.0, 69.0, 382.0, 381.0, 274.0, 988.0, 769.0, 67.0, 36.0, 343.0, 99.0, 139.0, 666.0, 430.0, 928.0, 797.0, 672.0, 87.0, 453.0, 570.0, 816.0, 271.0, 297.0, 519.0], [2.0, 939.0, 170.0, 950.0, 40.0, 950.0, 417.0, 986.0, 860.0, 843.0, 747.0, 866.0, 939.0, 98.0, 377.0, 138.0, 400.0, 216.0, 843.0, 998.0, 399.0, 517.0, 261.0, 588.0, 889.0, 950.0, 654.0, 973.0, 53.0, 234.0], [249.0, 597.0, 330.0, 19.0, 730.0, 657.0, 12.0, 328.0, 559.0, 822.0, 157.0, 985.0, 583.0, 988.0, 755.0, 51.0, 907.0, 599.0, 124.0, 530.0, 483.0, 698.0, 31.0, 933.0, 237.0, 80.0, 415.0, 47.0, 851.0, 299.0], [492.0, 962.0, 369.0, 226.0, 966.0, 194.0, 237.0, 430.0, 942.0, 223.0, 157.0, 168.0, 360.0, 232.0, 101.0, 370.0, 172.0, 455.0, 666.0, 513.0, 896.0, 661.0, 206.0, 31.0, 547.0, 69.0, 864.0, 280.0, 929.0, 566.0], [902.0, 776.0, 852.0, 637.0, 572.0, 716.0, 130.0, 284.0, 383.0, 688.0, 559.0, 199.0, 447.0, 439.0, 446.0, 712.0, 490.0, 33.0, 367.0, 405.0, 351.0, 187.0, 868.0, 296.0, 733.0, 52.0, 68.0, 598.0, 883.0, 664.0], [509.0, 570.0, 551.0, 7.0, 806.0, 777.0, 411.0, 490.0, 659.0, 74.0, 632.0, 468.0, 951.0, 964.0, 807.0, 489.0, 720.0, 697.0, 623.0, 848.0, 3.0, 455.0, 801.0, 47.0, 894.0, 442.0, 497.0, 597.0, 197.0, 31.0], [462.0, 102.0, 498.0, 253.0, 516.0, 748.0, 531.0, 470.0, 975.0, 106.0, 363.0, 41.0, 384.0, 614.0, 40.0, 482.0, 721.0, 452.0, 13.0, 218.0, 266.0, 523.0, 990.0, 479.0, 201.0, 653.0, 535.0, 106.0, 507.0, 153.0], [852.0, 793.0, 912.0, 965.0, 701.0, 918.0, 165.0, 490.0, 930.0, 550.0, 129.0, 821.0, 597.0, 220.0, 450.0, 496.0, 606.0, 12.0, 239.0, 116.0, 942.0, 179.0, 718.0, 995.0, 676.0, 905.0, 325.0, 421.0, 242.0, 44.0], [138.0, 861.0, 230.0, 718.0, 636.0, 962.0, 805.0, 66.0, 986.0, 958.0, 329.0, 272.0, 800.0, 307.0, 354.0, 769.0, 99.0, 238.0, 124.0, 991.0, 903.0, 890.0, 145.0, 956.0, 795.0, 660.0, 127.0, 994.0, 81.0, 222.0], [910.0, 455.0, 754.0, 220.0, 67.0, 576.0, 588.0, 572.0, 303.0, 258.0, 998.0, 565.0, 588.0, 362.0, 312.0, 41.0, 798.0, 505.0, 349.0, 446.0, 559.0, 931.0, 292.0, 351.0, 366.0, 592.0, 522.0, 250.0, 458.0, 365.0], [605.0, 8.0, 176.0, 412.0, 934.0, 588.0, 977.0, 62.0, 281.0, 43.0, 471.0, 284.0, 812.0, 41.0, 140.0, 552.0, 193.0, 247.0, 144.0, 594.0, 21.0, 635.0, 512.0, 396.0, 764.0, 956.0, 834.0, 572.0, 458.0, 97.0], [413.0, 350.0, 797.0, 831.0, 534.0, 125.0, 788.0, 214.0, 936.0, 963.0, 353.0, 347.0, 469.0, 412.0, 388.0, 286.0, 631.0, 150.0, 277.0, 157.0, 969.0, 150.0, 940.0, 258.0, 206.0, 955.0, 755.0, 225.0, 982.0, 416.0], [260.0, 852.0, 616.0, 536.0, 566.0, 468.0, 719.0, 913.0, 758.0, 862.0, 81.0, 53.0, 603.0, 752.0, 679.0, 474.0, 67.0, 351.0, 514.0, 618.0, 543.0, 690.0, 833.0, 476.0, 747.0, 454.0, 400.0, 408.0, 296.0, 491.0], [892.0, 706.0, 132.0, 1.0, 180.0, 400.0, 297.0, 713.0, 39.0, 989.0, 131.0, 867.0, 27.0, 517.0, 922.0, 47.0, 379.0, 6.0, 477.0, 666.0, 920.0, 699.0, 611.0, 460.0, 397.0, 897.0, 580.0, 745.0, 969.0, 100.0], [738.0, 962.0, 236.0, 179.0, 486.0, 657.0, 341.0, 941.0, 340.0, 632.0, 873.0, 88.0, 272.0, 474.0, 202.0, 451.0, 82.0, 167.0, 453.0, 453.0, 399.0, 976.0, 412.0, 453.0, 109.0, 556.0, 950.0, 145.0, 617.0, 40.0], [748.0, 208.0, 470.0, 414.0, 482.0, 465.0, 741.0, 889.0, 543.0, 412.0, 538.0, 161.0, 201.0, 60.0, 408.0, 932.0, 9.0, 997.0, 98.0, 303.0, 422.0, 2.0, 346.0, 711.0, 995.0, 88.0, 42.0, 90.0, 111.0, 223.0], [904.0, 194.0, 830.0, 811.0, 727.0, 339.0, 433.0, 522.0, 7.0, 657.0, 698.0, 802.0, 333.0, 132.0, 247.0, 245.0, 279.0, 693.0, 360.0, 499.0, 257.0, 330.0, 235.0, 512.0, 1000.0, 44.0, 279.0, 709.0, 313.0, 610.0], [973.0, 646.0, 643.0, 339.0, 163.0, 513.0, 223.0, 91.0, 38.0, 762.0, 47.0, 37.0, 882.0, 217.0, 861.0, 535.0, 592.0, 258.0, 609.0, 37.0, 431.0, 982.0, 342.0, 965.0, 271.0, 337.0, 676.0, 104.0, 694.0, 788.0], [719.0, 446.0, 623.0, 62.0, 394.0, 67.0, 753.0, 13.0, 290.0, 538.0, 784.0, 829.0, 970.0, 482.0, 148.0, 715.0, 655.0, 313.0, 753.0, 35.0, 12.0, 159.0, 918.0, 915.0, 309.0, 226.0, 368.0, 215.0, 710.0, 674.0], [174.0, 389.0, 381.0, 691.0, 111.0, 719.0, 951.0, 847.0, 497.0, 431.0, 836.0, 741.0, 729.0, 805.0, 529.0, 179.0, 23.0, 163.0, 474.0, 161.0, 168.0, 393.0, 939.0, 134.0, 109.0, 371.0, 386.0, 819.0, 808.0, 896.0], [718.0, 184.0, 647.0, 967.0, 964.0, 153.0, 602.0, 388.0, 121.0, 889.0, 554.0, 592.0, 851.0, 443.0, 529.0, 325.0, 337.0, 752.0, 774.0, 304.0, 338.0, 330.0, 36.0, 803.0, 677.0, 314.0, 506.0, 629.0, 655.0, 268.0], [806.0, 54.0, 494.0, 210.0, 310.0, 829.0, 626.0, 135.0, 539.0, 286.0, 661.0, 686.0, 152.0, 736.0, 720.0, 403.0, 997.0, 605.0, 105.0, 86.0, 988.0, 963.0, 209.0, 45.0, 286.0, 44.0, 870.0, 567.0, 446.0, 352.0], [440.0, 567.0, 659.0, 423.0, 970.0, 623.0, 603.0, 393.0, 336.0, 19.0, 934.0, 334.0, 737.0, 691.0, 913.0, 889.0, 505.0, 377.0, 37.0, 581.0, 153.0, 412.0, 82.0, 439.0, 941.0, 200.0, 960.0, 454.0, 195.0, 42.0], [298.0, 742.0, 211.0, 524.0, 566.0, 988.0, 617.0, 541.0, 822.0, 249.0, 640.0, 118.0, 564.0, 676.0, 617.0, 666.0, 311.0, 630.0, 272.0, 535.0, 881.0, 348.0, 559.0, 178.0, 201.0, 208.0, 576.0, 962.0, 929.0, 574.0], [920.0, 577.0, 92.0, 829.0, 728.0, 592.0, 812.0, 121.0, 688.0, 720.0, 561.0, 494.0, 869.0, 404.0, 196.0, 324.0, 780.0, 105.0, 506.0, 983.0, 840.0, 713.0, 123.0, 542.0, 289.0, 11.0, 973.0, 998.0, 386.0, 495.0], [56.0, 825.0, 731.0, 548.0, 839.0, 376.0, 487.0, 257.0, 242.0, 652.0, 340.0, 608.0, 51.0, 83.0, 291.0, 73.0, 664.0, 284.0, 518.0, 450.0, 506.0, 651.0, 438.0, 568.0, 886.0, 106.0, 357.0, 815.0, 295.0, 724.0], [779.0, 669.0, 730.0, 479.0, 39.0, 105.0, 9.0, 760.0, 392.0, 866.0, 235.0, 40.0, 171.0, 906.0, 307.0, 20.0, 428.0, 763.0, 529.0, 210.0, 614.0, 834.0, 609.0, 605.0, 118.0, 568.0, 91.0, 699.0, 984.0, 714.0], [859.0, 69.0, 565.0, 440.0, 577.0, 882.0, 396.0, 687.0, 892.0, 672.0, 474.0, 721.0, 373.0, 339.0, 308.0, 240.0, 481.0, 409.0, 37.0, 24.0, 911.0, 78.0, 739.0, 852.0, 700.0, 457.0, 401.0, 848.0, 72.0, 495.0], [810.0, 178.0, 594.0, 520.0, 541.0, 173.0, 82.0, 16.0, 990.0, 241.0, 851.0, 166.0, 5.0, 796.0, 412.0, 209.0, 488.0, 746.0, 671.0, 977.0, 199.0, 396.0, 579.0, 566.0, 535.0, 853.0, 284.0, 264.0, 769.0, 814.0], [29.0, 805.0, 843.0, 780.0, 665.0, 917.0, 440.0, 748.0, 448.0, 653.0, 521.0, 242.0, 778.0, 72.0, 867.0, 805.0, 267.0, 387.0, 73.0, 115.0, 298.0, 714.0, 46.0, 836.0, 866.0, 18.0, 741.0, 596.0, 947.0, 366.0], [843.0, 17.0, 407.0, 718.0, 224.0, 366.0, 186.0, 785.0, 630.0, 495.0, 722.0, 653.0, 49.0, 488.0, 874.0, 35.0, 337.0, 624.0, 343.0, 936.0, 561.0, 682.0, 243.0, 188.0, 546.0, 244.0, 636.0, 740.0, 96.0, 433.0], [442.0, 292.0, 224.0, 821.0, 110.0, 782.0, 701.0, 154.0, 224.0, 848.0, 620.0, 437.0, 207.0, 197.0, 601.0, 157.0, 516.0, 513.0, 268.0, 350.0, 839.0, 415.0, 18.0, 959.0, 488.0, 538.0, 819.0, 491.0, 320.0, 910.0], [587.0, 310.0, 343.0, 664.0, 747.0, 506.0, 891.0, 341.0, 417.0, 639.0, 462.0, 897.0, 842.0, 594.0, 541.0, 383.0, 467.0, 567.0, 553.0, 703.0, 994.0, 137.0, 463.0, 989.0, 970.0, 877.0, 416.0, 961.0, 889.0, 766.0], [470.0, 988.0, 240.0, 415.0, 950.0, 476.0, 266.0, 855.0, 552.0, 454.0, 194.0, 241.0, 730.0, 505.0, 162.0, 587.0, 524.0, 315.0, 73.0, 673.0, 660.0, 940.0, 940.0, 655.0, 603.0, 679.0, 360.0, 738.0, 462.0, 694.0], [249.0, 833.0, 255.0, 504.0, 64.0, 238.0, 708.0, 930.0, 865.0, 278.0, 990.0, 792.0, 107.0, 1000.0, 267.0, 785.0, 309.0, 562.0, 951.0, 145.0, 802.0, 268.0, 211.0, 46.0, 70.0, 275.0, 2.0, 539.0, 244.0, 512.0], [389.0, 69.0, 499.0, 716.0, 721.0, 970.0, 527.0, 192.0, 812.0, 382.0, 256.0, 525.0, 703.0, 234.0, 231.0, 590.0, 221.0, 800.0, 131.0, 55.0, 153.0, 568.0, 438.0, 428.0, 253.0, 542.0, 86.0, 542.0, 299.0, 304.0], [429.0, 516.0, 270.0, 730.0, 380.0, 95.0, 800.0, 696.0, 810.0, 798.0, 490.0, 816.0, 797.0, 735.0, 208.0, 436.0, 518.0, 705.0, 305.0, 424.0, 121.0, 7.0, 847.0, 888.0, 176.0, 986.0, 530.0, 937.0, 584.0, 718.0], [212.0, 224.0, 644.0, 43.0, 563.0, 741.0, 889.0, 526.0, 857.0, 755.0, 339.0, 768.0, 625.0, 306.0, 619.0, 955.0, 307.0, 300.0, 398.0, 344.0, 329.0, 775.0, 23.0, 941.0, 627.0, 605.0, 994.0, 920.0, 678.0, 341.0], [129.0, 19.0, 430.0, 29.0, 506.0, 972.0, 889.0, 840.0, 669.0, 326.0, 650.0, 662.0, 930.0, 16.0, 917.0, 44.0, 726.0, 390.0, 30.0, 691.0, 328.0, 414.0, 928.0, 512.0, 756.0, 650.0, 367.0, 507.0, 210.0, 130.0], [449.0, 640.0, 952.0, 223.0, 510.0, 696.0, 43.0, 135.0, 110.0, 126.0, 187.0, 7.0, 260.0, 359.0, 217.0, 989.0, 479.0, 708.0, 809.0, 893.0, 185.0, 683.0, 612.0, 13.0, 616.0, 829.0, 190.0, 667.0, 190.0, 80.0], [478.0, 258.0, 363.0, 728.0, 123.0, 813.0, 268.0, 864.0, 149.0, 437.0, 11.0, 871.0, 896.0, 43.0, 72.0, 670.0, 331.0, 198.0, 632.0, 944.0, 855.0, 798.0, 773.0, 189.0, 333.0, 882.0, 483.0, 674.0, 487.0, 188.0], [471.0, 639.0, 984.0, 285.0, 264.0, 474.0, 343.0, 302.0, 612.0, 943.0, 480.0, 999.0, 628.0, 697.0, 854.0, 947.0, 53.0, 1.0, 169.0, 751.0, 249.0, 60.0, 19.0, 726.0, 933.0, 178.0, 110.0, 79.0, 747.0, 590.0], [93.0, 209.0, 57.0, 967.0, 832.0, 598.0, 497.0, 782.0, 874.0, 639.0, 147.0, 193.0, 58.0, 584.0, 305.0, 84.0, 609.0, 700.0, 949.0, 109.0, 870.0, 351.0, 609.0, 625.0, 938.0, 73.0, 382.0, 972.0, 203.0, 23.0], [873.0, 80.0, 850.0, 15.0, 186.0, 629.0, 807.0, 64.0, 220.0, 500.0, 522.0, 385.0, 535.0, 42.0, 42.0, 684.0, 49.0, 877.0, 792.0, 224.0, 953.0, 824.0, 163.0, 4.0, 324.0, 348.0, 589.0, 390.0, 81.0, 588.0], [685.0, 309.0, 918.0, 425.0, 248.0, 544.0, 440.0, 477.0, 9.0, 513.0, 311.0, 713.0, 290.0, 624.0, 314.0, 429.0, 167.0, 858.0, 845.0, 569.0, 1.0, 157.0, 526.0, 739.0, 500.0, 199.0, 935.0, 110.0, 363.0, 127.0], [194.0, 655.0, 615.0, 657.0, 921.0, 752.0, 46.0, 486.0, 391.0, 65.0, 79.0, 765.0, 785.0, 435.0, 511.0, 949.0, 259.0, 887.0, 232.0, 868.0, 774.0, 477.0, 998.0, 297.0, 203.0, 524.0, 972.0, 601.0, 282.0, 431.0], [756.0, 664.0, 526.0, 458.0, 582.0, 202.0, 54.0, 686.0, 927.0, 565.0, 254.0, 475.0, 172.0, 917.0, 32.0, 43.0, 292.0, 568.0, 466.0, 522.0, 245.0, 89.0, 486.0, 538.0, 316.0, 728.0, 754.0, 143.0, 159.0, 415.0], [220.0, 421.0, 486.0, 680.0, 68.0, 393.0, 944.0, 688.0, 913.0, 908.0, 582.0, 415.0, 554.0, 40.0, 359.0, 77.0, 354.0, 624.0, 49.0, 46.0, 847.0, 792.0, 507.0, 785.0, 714.0, 699.0, 50.0, 474.0, 899.0, 260.0], [876.0, 375.0, 104.0, 753.0, 628.0, 2.0, 892.0, 952.0, 599.0, 544.0, 327.0, 731.0, 891.0, 200.0, 232.0, 816.0, 635.0, 915.0, 335.0, 125.0, 790.0, 200.0, 912.0, 655.0, 302.0, 679.0, 933.0, 22.0, 323.0, 720.0], [139.0, 913.0, 929.0, 992.0, 79.0, 556.0, 923.0, 750.0, 747.0, 221.0, 756.0, 661.0, 123.0, 59.0, 590.0, 853.0, 66.0, 19.0, 307.0, 431.0, 125.0, 461.0, 276.0, 443.0, 492.0, 302.0, 25.0, 578.0, 398.0, 438.0], [897.0, 104.0, 173.0, 805.0, 353.0, 286.0, 66.0, 440.0, 556.0, 918.0, 160.0, 356.0, 349.0, 98.0, 962.0, 561.0, 648.0, 734.0, 65.0, 584.0, 240.0, 234.0, 247.0, 313.0, 858.0, 717.0, 607.0, 344.0, 625.0, 271.0], [240.0, 119.0, 265.0, 529.0, 774.0, 8.0, 47.0, 440.0, 405.0, 171.0, 624.0, 548.0, 90.0, 430.0, 671.0, 324.0, 837.0, 878.0, 946.0, 232.0, 162.0, 386.0, 453.0, 742.0, 202.0, 644.0, 52.0, 167.0, 816.0, 341.0], [191.0, 768.0, 382.0, 111.0, 637.0, 639.0, 260.0, 75.0, 779.0, 650.0, 696.0, 835.0, 960.0, 181.0, 141.0, 825.0, 898.0, 655.0, 553.0, 99.0, 216.0, 605.0, 368.0, 923.0, 83.0, 647.0, 751.0, 742.0, 79.0, 744.0], [667.0, 902.0, 998.0, 297.0, 60.0, 518.0, 238.0, 265.0, 677.0, 264.0, 449.0, 98.0, 321.0, 593.0, 127.0, 593.0, 273.0, 125.0, 207.0, 38.0, 335.0, 626.0, 122.0, 861.0, 772.0, 74.0, 629.0, 239.0, 537.0, 684.0], [723.0, 276.0, 110.0, 867.0, 126.0, 773.0, 528.0, 550.0, 210.0, 773.0, 226.0, 628.0, 304.0, 106.0, 298.0, 332.0, 786.0, 151.0, 641.0, 477.0, 753.0, 634.0, 469.0, 326.0, 433.0, 631.0, 865.0, 45.0, 194.0, 869.0], [800.0, 991.0, 678.0, 429.0, 787.0, 971.0, 59.0, 349.0, 472.0, 74.0, 666.0, 527.0, 844.0, 226.0, 243.0, 711.0, 108.0, 436.0, 537.0, 965.0, 355.0, 542.0, 310.0, 819.0, 983.0, 929.0, 549.0, 562.0, 474.0, 922.0], [592.0, 688.0, 1000.0, 241.0, 737.0, 964.0, 432.0, 592.0, 260.0, 648.0, 856.0, 668.0, 285.0, 612.0, 374.0, 535.0, 507.0, 863.0, 729.0, 869.0, 663.0, 563.0, 680.0, 348.0, 601.0, 341.0, 450.0, 498.0, 700.0, 736.0], [914.0, 130.0, 800.0, 184.0, 288.0, 207.0, 619.0, 65.0, 14.0, 240.0, 915.0, 690.0, 438.0, 836.0, 80.0, 870.0, 469.0, 785.0, 981.0, 98.0, 380.0, 60.0, 634.0, 785.0, 353.0, 694.0, 242.0, 105.0, 86.0, 275.0], [895.0, 623.0, 263.0, 456.0, 764.0, 187.0, 420.0, 355.0, 396.0, 301.0, 857.0, 64.0, 3.0, 752.0, 418.0, 857.0, 709.0, 694.0, 814.0, 806.0, 151.0, 771.0, 850.0, 978.0, 859.0, 928.0, 702.0, 690.0, 134.0, 43.0], [470.0, 958.0, 988.0, 107.0, 279.0, 27.0, 772.0, 239.0, 110.0, 678.0, 258.0, 905.0, 929.0, 640.0, 252.0, 563.0, 838.0, 881.0, 933.0, 242.0, 102.0, 941.0, 458.0, 608.0, 564.0, 650.0, 943.0, 626.0, 184.0, 973.0], [263.0, 90.0, 96.0, 584.0, 554.0, 463.0, 459.0, 162.0, 859.0, 97.0, 359.0, 672.0, 597.0, 920.0, 125.0, 640.0, 868.0, 504.0, 151.0, 75.0, 648.0, 353.0, 699.0, 431.0, 111.0, 463.0, 669.0, 318.0, 930.0, 418.0], [296.0, 194.0, 431.0, 838.0, 254.0, 905.0, 362.0, 366.0, 42.0, 111.0, 949.0, 459.0, 718.0, 975.0, 596.0, 758.0, 540.0, 248.0, 930.0, 507.0, 291.0, 467.0, 611.0, 634.0, 126.0, 455.0, 681.0, 968.0, 94.0, 951.0], [744.0, 298.0, 948.0, 891.0, 801.0, 464.0, 316.0, 207.0, 641.0, 653.0, 271.0, 341.0, 788.0, 619.0, 255.0, 406.0, 329.0, 441.0, 594.0, 976.0, 788.0, 834.0, 58.0, 626.0, 518.0, 141.0, 940.0, 219.0, 393.0, 989.0], [633.0, 673.0, 544.0, 910.0, 850.0, 562.0, 859.0, 658.0, 944.0, 440.0, 128.0, 759.0, 937.0, 187.0, 137.0, 173.0, 937.0, 849.0, 697.0, 240.0, 477.0, 812.0, 3.0, 654.0, 609.0, 201.0, 679.0, 436.0, 817.0, 633.0], [924.0, 1000.0, 643.0, 67.0, 406.0, 773.0, 630.0, 446.0, 6.0, 304.0, 538.0, 532.0, 956.0, 744.0, 372.0, 403.0, 354.0, 974.0, 717.0, 521.0, 616.0, 143.0, 473.0, 731.0, 440.0, 583.0, 361.0, 768.0, 601.0, 683.0], [211.0, 566.0, 452.0, 614.0, 117.0, 34.0, 255.0, 503.0, 764.0, 383.0, 899.0, 801.0, 181.0, 213.0, 738.0, 436.0, 482.0, 232.0, 37.0, 144.0, 97.0, 914.0, 766.0, 14.0, 690.0, 518.0, 325.0, 991.0, 364.0, 789.0], [370.0, 16.0, 333.0, 392.0, 854.0, 685.0, 283.0, 204.0, 960.0, 341.0, 363.0, 877.0, 706.0, 754.0, 101.0, 236.0, 978.0, 127.0, 491.0, 154.0, 736.0, 367.0, 982.0, 735.0, 141.0, 325.0, 265.0, 934.0, 24.0, 106.0], [661.0, 315.0, 592.0, 132.0, 531.0, 770.0, 483.0, 158.0, 613.0, 676.0, 338.0, 276.0, 273.0, 465.0, 190.0, 371.0, 510.0, 980.0, 639.0, 220.0, 65.0, 189.0, 439.0, 236.0, 338.0, 102.0, 763.0, 190.0, 463.0, 63.0], [254.0, 550.0, 833.0, 659.0, 299.0, 373.0, 44.0, 927.0, 897.0, 271.0, 905.0, 482.0, 894.0, 808.0, 108.0, 334.0, 482.0, 631.0, 651.0, 897.0, 227.0, 648.0, 921.0, 781.0, 592.0, 507.0, 989.0, 943.0, 311.0, 349.0], [260.0, 919.0, 189.0, 155.0, 351.0, 400.0, 489.0, 636.0, 796.0, 354.0, 622.0, 739.0, 607.0, 500.0, 164.0, 667.0, 79.0, 776.0, 370.0, 245.0, 559.0, 989.0, 432.0, 893.0, 119.0, 828.0, 724.0, 828.0, 361.0, 861.0], [249.0, 645.0, 573.0, 307.0, 698.0, 751.0, 426.0, 253.0, 3.0, 500.0, 321.0, 548.0, 732.0, 659.0, 344.0, 341.0, 192.0, 150.0, 138.0, 488.0, 832.0, 733.0, 596.0, 843.0, 536.0, 42.0, 383.0, 902.0, 367.0, 469.0], [814.0, 273.0, 659.0, 822.0, 452.0, 234.0, 769.0, 111.0, 845.0, 252.0, 756.0, 708.0, 796.0, 181.0, 620.0, 288.0, 583.0, 326.0, 910.0, 412.0, 200.0, 444.0, 610.0, 715.0, 198.0, 737.0, 861.0, 699.0, 123.0, 978.0], [519.0, 376.0, 292.0, 740.0, 684.0, 904.0, 780.0, 644.0, 529.0, 442.0, 283.0, 298.0, 847.0, 80.0, 387.0, 133.0, 959.0, 599.0, 167.0, 33.0, 218.0, 914.0, 689.0, 390.0, 800.0, 886.0, 486.0, 896.0, 948.0, 805.0], [144.0, 55.0, 122.0, 666.0, 996.0, 659.0, 419.0, 961.0, 262.0, 704.0, 922.0, 56.0, 959.0, 242.0, 209.0, 929.0, 221.0, 634.0, 937.0, 722.0, 442.0, 651.0, 27.0, 174.0, 322.0, 95.0, 649.0, 579.0, 590.0, 937.0], [557.0, 698.0, 376.0, 251.0, 879.0, 278.0, 246.0, 227.0, 319.0, 24.0, 769.0, 73.0, 802.0, 571.0, 16.0, 577.0, 370.0, 354.0, 497.0, 657.0, 524.0, 538.0, 432.0, 908.0, 252.0, 866.0, 141.0, 665.0, 638.0, 248.0], [602.0, 492.0, 249.0, 596.0, 97.0, 797.0, 738.0, 508.0, 673.0, 939.0, 200.0, 696.0, 978.0, 131.0, 51.0, 42.0, 560.0, 468.0, 827.0, 703.0, 565.0, 842.0, 304.0, 912.0, 867.0, 931.0, 884.0, 292.0, 44.0, 155.0], [549.0, 659.0, 658.0, 366.0, 134.0, 677.0, 781.0, 11.0, 344.0, 380.0, 359.0, 502.0, 850.0, 743.0, 695.0, 861.0, 713.0, 305.0, 767.0, 259.0, 528.0, 267.0, 982.0, 332.0, 401.0, 321.0, 72.0, 548.0, 607.0, 554.0], [647.0, 627.0, 628.0, 883.0, 204.0, 638.0, 828.0, 851.0, 802.0, 239.0, 609.0, 597.0, 777.0, 146.0, 809.0, 287.0, 195.0, 62.0, 461.0, 312.0, 144.0, 235.0, 955.0, 630.0, 692.0, 682.0, 187.0, 263.0, 910.0, 11.0], [745.0, 170.0, 371.0, 380.0, 830.0, 260.0, 327.0, 895.0, 65.0, 490.0, 897.0, 973.0, 189.0, 325.0, 82.0, 784.0, 305.0, 813.0, 561.0, 507.0, 651.0, 862.0, 896.0, 136.0, 634.0, 413.0, 652.0, 115.0, 106.0, 533.0], [609.0, 593.0, 54.0, 389.0, 88.0, 160.0, 664.0, 335.0, 707.0, 577.0, 311.0, 916.0, 171.0, 670.0, 39.0, 84.0, 328.0, 52.0, 801.0, 313.0, 402.0, 267.0, 169.0, 13.0, 578.0, 539.0, 807.0, 905.0, 39.0, 555.0], [897.0, 356.0, 123.0, 279.0, 74.0, 895.0, 582.0, 938.0, 839.0, 546.0, 642.0, 887.0, 678.0, 749.0, 893.0, 700.0, 778.0, 881.0, 78.0, 678.0, 747.0, 763.0, 661.0, 195.0, 619.0, 759.0, 736.0, 170.0, 688.0, 312.0], [103.0, 490.0, 768.0, 294.0, 31.0, 44.0, 382.0, 768.0, 986.0, 410.0, 990.0, 387.0, 334.0, 749.0, 467.0, 726.0, 491.0, 490.0, 14.0, 691.0, 983.0, 329.0, 993.0, 328.0, 156.0, 365.0, 763.0, 144.0, 111.0, 233.0], [80.0, 338.0, 752.0, 483.0, 667.0, 414.0, 293.0, 783.0, 48.0, 422.0, 330.0, 870.0, 599.0, 195.0, 86.0, 350.0, 814.0, 10.0, 262.0, 259.0, 87.0, 891.0, 114.0, 116.0, 336.0, 204.0, 70.0, 51.0, 828.0, 228.0], [717.0, 904.0, 429.0, 642.0, 679.0, 270.0, 844.0, 569.0, 722.0, 698.0, 54.0, 202.0, 578.0, 242.0, 525.0, 970.0, 887.0, 361.0, 545.0, 329.0, 342.0, 672.0, 923.0, 766.0, 342.0, 601.0, 834.0, 945.0, 862.0, 396.0], [253.0, 218.0, 562.0, 873.0, 800.0, 893.0, 641.0, 337.0, 318.0, 66.0, 839.0, 611.0, 699.0, 323.0, 831.0, 1000.0, 697.0, 370.0, 856.0, 615.0, 435.0, 402.0, 373.0, 202.0, 226.0, 234.0, 93.0, 29.0, 269.0, 720.0], [734.0, 874.0, 542.0, 560.0, 21.0, 993.0, 65.0, 912.0, 192.0, 162.0, 9.0, 338.0, 562.0, 353.0, 313.0, 569.0, 763.0, 59.0, 534.0, 685.0, 782.0, 813.0, 601.0, 987.0, 515.0, 786.0, 792.0, 380.0, 308.0, 47.0], [551.0, 283.0, 720.0, 48.0, 9.0, 588.0, 458.0, 265.0, 506.0, 862.0, 362.0, 504.0, 913.0, 238.0, 381.0, 146.0, 611.0, 767.0, 924.0, 943.0, 232.0, 209.0, 671.0, 884.0, 227.0, 805.0, 54.0, 722.0, 884.0, 348.0], [129.0, 455.0, 262.0, 992.0, 960.0, 166.0, 130.0, 779.0, 162.0, 597.0, 751.0, 853.0, 817.0, 208.0, 956.0, 520.0, 197.0, 648.0, 359.0, 851.0, 574.0, 884.0, 440.0, 915.0, 196.0, 836.0, 756.0, 983.0, 512.0, 783.0], [127.0, 693.0, 851.0, 354.0, 640.0, 532.0, 666.0, 832.0, 277.0, 825.0, 777.0, 675.0, 320.0, 899.0, 409.0, 281.0, 146.0, 490.0, 518.0, 119.0, 148.0, 912.0, 98.0, 893.0, 421.0, 665.0, 2.0, 606.0, 265.0, 48.0], [825.0, 607.0, 365.0, 123.0, 756.0, 415.0, 157.0, 974.0, 595.0, 749.0, 469.0, 728.0, 239.0, 371.0, 543.0, 68.0, 334.0, 322.0, 459.0, 168.0, 833.0, 367.0, 364.0, 398.0, 781.0, 187.0, 114.0, 93.0, 148.0, 96.0], [368.0, 910.0, 863.0, 981.0, 707.0, 841.0, 216.0, 881.0, 527.0, 33.0, 934.0, 632.0, 337.0, 445.0, 454.0, 117.0, 354.0, 949.0, 382.0, 607.0, 817.0, 702.0, 804.0, 273.0, 119.0, 17.0, 478.0, 130.0, 3.0, 698.0], [683.0, 59.0, 512.0, 359.0, 478.0, 152.0, 287.0, 77.0, 77.0, 124.0, 460.0, 229.0, 921.0, 532.0, 972.0, 24.0, 734.0, 382.0, 490.0, 804.0, 652.0, 247.0, 628.0, 579.0, 545.0, 205.0, 237.0, 217.0, 948.0, 995.0], [688.0, 971.0, 680.0, 936.0, 528.0, 623.0, 315.0, 626.0, 81.0, 470.0, 121.0, 821.0, 667.0, 135.0, 42.0, 448.0, 851.0, 807.0, 296.0, 19.0, 699.0, 678.0, 795.0, 998.0, 263.0, 278.0, 756.0, 961.0, 879.0, 801.0], [326.0, 802.0, 650.0, 54.0, 68.0, 150.0, 673.0, 796.0, 125.0, 56.0, 243.0, 831.0, 431.0, 396.0, 686.0, 503.0, 728.0, 135.0, 418.0, 73.0, 653.0, 845.0, 541.0, 804.0, 282.0, 579.0, 320.0, 710.0, 32.0, 428.0], [195.0, 67.0, 734.0, 376.0, 215.0, 185.0, 713.0, 178.0, 816.0, 319.0, 630.0, 696.0, 936.0, 231.0, 460.0, 243.0, 384.0, 369.0, 643.0, 759.0, 628.0, 952.0, 788.0, 670.0, 892.0, 186.0, 605.0, 852.0, 683.0, 235.0], [50.0, 627.0, 29.0, 166.0, 148.0, 874.0, 764.0, 535.0, 164.0, 344.0, 371.0, 253.0, 630.0, 88.0, 880.0, 816.0, 447.0, 38.0, 498.0, 394.0, 139.0, 108.0, 597.0, 123.0, 102.0, 672.0, 299.0, 135.0, 365.0, 698.0], [860.0, 462.0, 787.0, 968.0, 716.0, 858.0, 557.0, 319.0, 733.0, 881.0, 633.0, 959.0, 389.0, 899.0, 803.0, 636.0, 7.0, 200.0, 526.0, 863.0, 354.0, 919.0, 134.0, 378.0, 849.0, 169.0, 260.0, 887.0, 578.0, 629.0], [548.0, 227.0, 885.0, 121.0, 716.0, 712.0, 223.0, 873.0, 869.0, 61.0, 573.0, 506.0, 604.0, 500.0, 962.0, 467.0, 475.0, 439.0, 614.0, 829.0, 767.0, 144.0, 843.0, 984.0, 641.0, 747.0, 987.0, 69.0, 486.0, 952.0], [197.0, 826.0, 803.0, 842.0, 524.0, 85.0, 641.0, 542.0, 686.0, 852.0, 350.0, 369.0, 445.0, 881.0, 841.0, 379.0, 7.0, 296.0, 575.0, 654.0, 687.0, 403.0, 303.0, 329.0, 33.0, 318.0, 406.0, 759.0, 232.0, 193.0], [646.0, 901.0, 832.0, 826.0, 538.0, 668.0, 536.0, 688.0, 411.0, 90.0, 122.0, 598.0, 556.0, 630.0, 26.0, 207.0, 63.0, 460.0, 910.0, 703.0, 534.0, 554.0, 176.0, 625.0, 324.0, 229.0, 151.0, 280.0, 132.0, 44.0], [959.0, 87.0, 43.0, 723.0, 665.0, 393.0, 638.0, 498.0, 6.0, 299.0, 660.0, 214.0, 699.0, 866.0, 890.0, 33.0, 752.0, 916.0, 309.0, 328.0, 19.0, 846.0, 728.0, 469.0, 661.0, 631.0, 700.0, 910.0, 274.0, 588.0], [550.0, 951.0, 522.0, 423.0, 747.0, 874.0, 132.0, 628.0, 309.0, 854.0, 722.0, 726.0, 489.0, 201.0, 420.0, 241.0, 965.0, 797.0, 754.0, 317.0, 300.0, 58.0, 60.0, 399.0, 159.0, 401.0, 575.0, 351.0, 800.0, 553.0], [806.0, 406.0, 369.0, 709.0, 53.0, 56.0, 380.0, 933.0, 258.0, 485.0, 456.0, 100.0, 660.0, 630.0, 49.0, 525.0, 159.0, 21.0, 290.0, 251.0, 99.0, 617.0, 977.0, 714.0, 413.0, 388.0, 639.0, 10.0, 979.0, 423.0], [697.0, 821.0, 391.0, 651.0, 911.0, 517.0, 934.0, 370.0, 191.0, 114.0, 770.0, 905.0, 972.0, 344.0, 211.0, 292.0, 741.0, 570.0, 588.0, 593.0, 444.0, 93.0, 64.0, 12.0, 319.0, 923.0, 497.0, 765.0, 185.0, 271.0], [108.0, 609.0, 504.0, 335.0, 592.0, 3.0, 237.0, 583.0, 556.0, 157.0, 332.0, 434.0, 892.0, 752.0, 971.0, 551.0, 767.0, 347.0, 769.0, 435.0, 895.0, 214.0, 807.0, 629.0, 563.0, 64.0, 569.0, 897.0, 102.0, 155.0], [890.0, 79.0, 176.0, 121.0, 654.0, 618.0, 928.0, 485.0, 884.0, 413.0, 579.0, 264.0, 796.0, 365.0, 121.0, 381.0, 677.0, 770.0, 388.0, 961.0, 176.0, 648.0, 228.0, 239.0, 810.0, 672.0, 428.0, 278.0, 389.0, 694.0], [452.0, 101.0, 919.0, 576.0, 180.0, 774.0, 407.0, 519.0, 175.0, 134.0, 267.0, 590.0, 635.0, 305.0, 519.0, 816.0, 906.0, 690.0, 395.0, 252.0, 832.0, 820.0, 291.0, 997.0, 241.0, 824.0, 166.0, 713.0, 634.0, 557.0], [873.0, 58.0, 864.0, 413.0, 925.0, 476.0, 739.0, 202.0, 912.0, 383.0, 179.0, 95.0, 717.0, 312.0, 343.0, 141.0, 126.0, 662.0, 560.0, 386.0, 684.0, 83.0, 365.0, 359.0, 677.0, 71.0, 969.0, 930.0, 479.0, 550.0], [492.0, 389.0, 69.0, 839.0, 658.0, 406.0, 519.0, 795.0, 793.0, 16.0, 425.0, 538.0, 723.0, 324.0, 411.0, 307.0, 131.0, 773.0, 679.0, 912.0, 876.0, 380.0, 683.0, 511.0, 266.0, 195.0, 412.0, 817.0, 789.0, 579.0], [692.0, 182.0, 339.0, 847.0, 956.0, 16.0, 666.0, 280.0, 497.0, 609.0, 946.0, 874.0, 794.0, 763.0, 816.0, 957.0, 889.0, 932.0, 981.0, 854.0, 760.0, 7.0, 920.0, 547.0, 121.0, 770.0, 96.0, 931.0, 443.0, 257.0], [777.0, 905.0, 969.0, 242.0, 856.0, 913.0, 431.0, 42.0, 506.0, 879.0, 561.0, 39.0, 10.0, 980.0, 800.0, 922.0, 553.0, 727.0, 450.0, 791.0, 907.0, 772.0, 657.0, 735.0, 943.0, 17.0, 611.0, 536.0, 505.0, 537.0], [275.0, 494.0, 661.0, 358.0, 574.0, 270.0, 430.0, 520.0, 207.0, 395.0, 940.0, 497.0, 386.0, 743.0, 626.0, 40.0, 363.0, 231.0, 529.0, 184.0, 424.0, 742.0, 86.0, 577.0, 171.0, 463.0, 984.0, 15.0, 402.0, 781.0], [160.0, 705.0, 855.0, 978.0, 720.0, 393.0, 455.0, 776.0, 884.0, 264.0, 386.0, 542.0, 396.0, 180.0, 572.0, 184.0, 67.0, 366.0, 111.0, 878.0, 952.0, 677.0, 216.0, 484.0, 277.0, 394.0, 216.0, 249.0, 282.0, 298.0], [577.0, 225.0, 905.0, 693.0, 971.0, 439.0, 793.0, 881.0, 988.0, 289.0, 430.0, 813.0, 904.0, 15.0, 628.0, 193.0, 154.0, 439.0, 43.0, 103.0, 838.0, 272.0, 181.0, 196.0, 911.0, 870.0, 299.0, 708.0, 104.0, 587.0], [636.0, 595.0, 960.0, 367.0, 162.0, 692.0, 547.0, 394.0, 389.0, 890.0, 419.0, 841.0, 880.0, 558.0, 473.0, 252.0, 729.0, 677.0, 536.0, 269.0, 354.0, 689.0, 224.0, 842.0, 809.0, 541.0, 13.0, 440.0, 222.0, 115.0], [622.0, 297.0, 7.0, 540.0, 498.0, 10.0, 342.0, 835.0, 423.0, 508.0, 799.0, 38.0, 511.0, 142.0, 13.0, 692.0, 412.0, 427.0, 710.0, 76.0, 371.0, 483.0, 654.0, 918.0, 499.0, 841.0, 242.0, 298.0, 489.0, 693.0], [872.0, 719.0, 881.0, 332.0, 559.0, 116.0, 631.0, 327.0, 19.0, 160.0, 797.0, 185.0, 799.0, 366.0, 151.0, 108.0, 556.0, 135.0, 83.0, 910.0, 880.0, 279.0, 573.0, 1000.0, 939.0, 764.0, 515.0, 730.0, 42.0, 285.0], [869.0, 676.0, 167.0, 759.0, 817.0, 96.0, 114.0, 414.0, 348.0, 301.0, 894.0, 894.0, 514.0, 392.0, 109.0, 10.0, 58.0, 110.0, 773.0, 780.0, 984.0, 203.0, 303.0, 751.0, 507.0, 874.0, 255.0, 164.0, 430.0, 658.0], [659.0, 124.0, 866.0, 509.0, 786.0, 228.0, 650.0, 532.0, 790.0, 253.0, 53.0, 513.0, 878.0, 598.0, 601.0, 19.0, 381.0, 394.0, 703.0, 537.0, 885.0, 463.0, 382.0, 961.0, 481.0, 858.0, 446.0, 355.0, 936.0, 927.0], [757.0, 652.0, 620.0, 765.0, 111.0, 102.0, 868.0, 833.0, 203.0, 394.0, 893.0, 816.0, 891.0, 54.0, 526.0, 108.0, 424.0, 131.0, 84.0, 780.0, 865.0, 15.0, 215.0, 731.0, 223.0, 618.0, 116.0, 978.0, 292.0, 771.0], [335.0, 767.0, 669.0, 807.0, 54.0, 392.0, 329.0, 532.0, 201.0, 451.0, 510.0, 986.0, 254.0, 539.0, 125.0, 162.0, 673.0, 604.0, 915.0, 967.0, 78.0, 904.0, 978.0, 153.0, 613.0, 158.0, 597.0, 620.0, 295.0, 912.0], [523.0, 312.0, 17.0, 308.0, 562.0, 250.0, 948.0, 791.0, 160.0, 497.0, 843.0, 896.0, 526.0, 352.0, 623.0, 395.0, 875.0, 711.0, 809.0, 981.0, 295.0, 44.0, 202.0, 825.0, 761.0, 359.0, 846.0, 637.0, 432.0, 539.0], [819.0, 611.0, 986.0, 94.0, 220.0, 513.0, 940.0, 497.0, 211.0, 687.0, 370.0, 600.0, 316.0, 594.0, 254.0, 462.0, 195.0, 858.0, 49.0, 820.0, 709.0, 93.0, 838.0, 354.0, 68.0, 707.0, 382.0, 809.0, 173.0, 73.0], [835.0, 46.0, 113.0, 347.0, 276.0, 456.0, 357.0, 553.0, 938.0, 316.0, 206.0, 285.0, 948.0, 1000.0, 187.0, 800.0, 423.0, 81.0, 292.0, 743.0, 891.0, 692.0, 970.0, 764.0, 781.0, 920.0, 253.0, 860.0, 884.0, 41.0], [260.0, 900.0, 387.0, 455.0, 584.0, 862.0, 156.0, 472.0, 757.0, 503.0, 146.0, 830.0, 805.0, 329.0, 252.0, 954.0, 165.0, 631.0, 84.0, 436.0, 255.0, 936.0, 75.0, 2.0, 109.0, 802.0, 26.0, 687.0, 531.0, 747.0], [680.0, 214.0, 292.0, 660.0, 772.0, 252.0, 941.0, 886.0, 270.0, 608.0, 324.0, 397.0, 982.0, 317.0, 679.0, 153.0, 887.0, 938.0, 208.0, 965.0, 8.0, 216.0, 819.0, 187.0, 638.0, 350.0, 154.0, 318.0, 782.0, 855.0], [709.0, 477.0, 518.0, 4.0, 218.0, 952.0, 51.0, 858.0, 113.0, 229.0, 734.0, 942.0, 5.0, 950.0, 33.0, 944.0, 910.0, 962.0, 682.0, 901.0, 353.0, 860.0, 82.0, 263.0, 221.0, 516.0, 312.0, 185.0, 70.0, 963.0], [923.0, 394.0, 77.0, 758.0, 758.0, 75.0, 6.0, 906.0, 269.0, 313.0, 943.0, 102.0, 110.0, 83.0, 532.0, 371.0, 581.0, 271.0, 758.0, 707.0, 648.0, 543.0, 314.0, 286.0, 656.0, 815.0, 494.0, 270.0, 628.0, 938.0], [162.0, 592.0, 434.0, 632.0, 63.0, 920.0, 391.0, 313.0, 566.0, 138.0, 336.0, 120.0, 38.0, 476.0, 481.0, 730.0, 666.0, 119.0, 421.0, 351.0, 760.0, 904.0, 950.0, 106.0, 867.0, 611.0, 327.0, 852.0, 187.0, 229.0], [814.0, 578.0, 788.0, 258.0, 940.0, 654.0, 714.0, 727.0, 29.0, 442.0, 328.0, 596.0, 704.0, 7.0, 393.0, 673.0, 719.0, 536.0, 12.0, 815.0, 509.0, 534.0, 980.0, 628.0, 29.0, 78.0, 722.0, 980.0, 413.0, 280.0], [881.0, 248.0, 90.0, 6.0, 297.0, 366.0, 29.0, 24.0, 145.0, 418.0, 901.0, 851.0, 116.0, 549.0, 417.0, 109.0, 759.0, 68.0, 988.0, 195.0, 85.0, 784.0, 320.0, 538.0, 291.0, 182.0, 735.0, 302.0, 403.0, 262.0], [38.0, 194.0, 843.0, 167.0, 551.0, 368.0, 21.0, 159.0, 396.0, 239.0, 770.0, 682.0, 705.0, 832.0, 763.0, 453.0, 31.0, 639.0, 640.0, 289.0, 754.0, 169.0, 363.0, 923.0, 90.0, 804.0, 482.0, 885.0, 148.0, 614.0], [970.0, 215.0, 94.0, 944.0, 350.0, 713.0, 814.0, 657.0, 568.0, 346.0, 764.0, 60.0, 474.0, 228.0, 450.0, 651.0, 303.0, 239.0, 175.0, 20.0, 923.0, 216.0, 438.0, 408.0, 599.0, 949.0, 607.0, 326.0, 360.0, 884.0], [146.0, 128.0, 228.0, 55.0, 958.0, 259.0, 217.0, 670.0, 323.0, 446.0, 198.0, 129.0, 494.0, 40.0, 611.0, 725.0, 60.0, 939.0, 551.0, 993.0, 257.0, 614.0, 954.0, 547.0, 941.0, 819.0, 753.0, 346.0, 19.0, 352.0], [127.0, 413.0, 520.0, 164.0, 411.0, 308.0, 952.0, 944.0, 57.0, 592.0, 630.0, 252.0, 466.0, 937.0, 719.0, 749.0, 82.0, 49.0, 630.0, 459.0, 329.0, 888.0, 16.0, 740.0, 138.0, 401.0, 686.0, 319.0, 158.0, 169.0], [364.0, 891.0, 101.0, 997.0, 15.0, 80.0, 260.0, 961.0, 412.0, 677.0, 62.0, 288.0, 70.0, 592.0, 205.0, 598.0, 523.0, 769.0, 717.0, 987.0, 581.0, 511.0, 613.0, 985.0, 315.0, 3.0, 84.0, 583.0, 960.0, 818.0], [317.0, 147.0, 791.0, 516.0, 501.0, 374.0, 376.0, 273.0, 120.0, 958.0, 803.0, 807.0, 655.0, 965.0, 265.0, 428.0, 227.0, 304.0, 247.0, 205.0, 478.0, 705.0, 414.0, 323.0, 142.0, 303.0, 698.0, 32.0, 975.0, 884.0], [988.0, 751.0, 857.0, 316.0, 414.0, 663.0, 919.0, 858.0, 430.0, 302.0, 412.0, 591.0, 140.0, 722.0, 503.0, 133.0, 278.0, 602.0, 498.0, 435.0, 813.0, 587.0, 630.0, 906.0, 463.0, 61.0, 134.0, 753.0, 253.0, 742.0], [962.0, 417.0, 812.0, 476.0, 567.0, 533.0, 580.0, 697.0, 500.0, 209.0, 983.0, 327.0, 183.0, 626.0, 711.0, 810.0, 913.0, 490.0, 436.0, 296.0, 138.0, 733.0, 610.0, 564.0, 938.0, 740.0, 626.0, 173.0, 488.0, 644.0], [550.0, 417.0, 544.0, 930.0, 684.0, 986.0, 948.0, 659.0, 914.0, 105.0, 227.0, 951.0, 495.0, 153.0, 126.0, 783.0, 833.0, 824.0, 910.0, 82.0, 784.0, 131.0, 785.0, 201.0, 416.0, 768.0, 450.0, 248.0, 282.0, 532.0], [227.0, 172.0, 69.0, 124.0, 323.0, 609.0, 885.0, 372.0, 462.0, 925.0, 630.0, 206.0, 725.0, 929.0, 47.0, 799.0, 916.0, 62.0, 901.0, 786.0, 565.0, 735.0, 29.0, 331.0, 981.0, 686.0, 242.0, 46.0, 972.0, 123.0], [241.0, 928.0, 236.0, 540.0, 578.0, 56.0, 441.0, 533.0, 635.0, 781.0, 401.0, 470.0, 100.0, 604.0, 83.0, 216.0, 752.0, 873.0, 856.0, 174.0, 445.0, 496.0, 117.0, 33.0, 377.0, 470.0, 356.0, 933.0, 641.0, 95.0], [803.0, 747.0, 856.0, 642.0, 698.0, 928.0, 975.0, 902.0, 649.0, 964.0, 431.0, 432.0, 740.0, 80.0, 362.0, 9.0, 883.0, 125.0, 877.0, 222.0, 339.0, 220.0, 818.0, 431.0, 466.0, 942.0, 328.0, 715.0, 517.0, 331.0], [322.0, 908.0, 621.0, 339.0, 536.0, 474.0, 434.0, 331.0, 131.0, 121.0, 740.0, 693.0, 977.0, 834.0, 582.0, 665.0, 331.0, 60.0, 1000.0, 906.0, 225.0, 382.0, 368.0, 831.0, 52.0, 343.0, 541.0, 301.0, 604.0, 393.0], [314.0, 645.0, 877.0, 557.0, 141.0, 674.0, 303.0, 340.0, 351.0, 98.0, 606.0, 848.0, 207.0, 389.0, 919.0, 741.0, 782.0, 876.0, 25.0, 21.0, 149.0, 324.0, 387.0, 289.0, 526.0, 192.0, 973.0, 2.0, 200.0, 550.0], [522.0, 557.0, 324.0, 845.0, 404.0, 334.0, 515.0, 265.0, 304.0, 873.0, 619.0, 749.0, 12.0, 409.0, 216.0, 504.0, 968.0, 762.0, 337.0, 628.0, 306.0, 571.0, 465.0, 831.0, 188.0, 825.0, 975.0, 453.0, 434.0, 741.0], [199.0, 395.0, 741.0, 185.0, 692.0, 198.0, 284.0, 545.0, 164.0, 232.0, 206.0, 199.0, 154.0, 506.0, 563.0, 658.0, 3.0, 504.0, 958.0, 508.0, 105.0, 724.0, 393.0, 933.0, 138.0, 730.0, 806.0, 911.0, 745.0, 804.0], [564.0, 481.0, 649.0, 217.0, 336.0, 667.0, 517.0, 157.0, 611.0, 106.0, 507.0, 873.0, 802.0, 436.0, 797.0, 850.0, 710.0, 525.0, 395.0, 882.0, 274.0, 524.0, 230.0, 767.0, 464.0, 61.0, 229.0, 225.0, 531.0, 566.0], [928.0, 263.0, 565.0, 530.0, 857.0, 924.0, 39.0, 156.0, 232.0, 445.0, 844.0, 852.0, 593.0, 454.0, 413.0, 131.0, 533.0, 71.0, 323.0, 230.0, 48.0, 908.0, 479.0, 711.0, 589.0, 805.0, 689.0, 117.0, 751.0, 942.0], [338.0, 914.0, 304.0, 14.0, 9.0, 177.0, 713.0, 234.0, 42.0, 513.0, 671.0, 150.0, 218.0, 830.0, 436.0, 726.0, 223.0, 29.0, 469.0, 131.0, 230.0, 683.0, 203.0, 769.0, 908.0, 171.0, 4.0, 664.0, 207.0, 171.0], [967.0, 719.0, 348.0, 101.0, 202.0, 611.0, 552.0, 950.0, 47.0, 834.0, 509.0, 512.0, 925.0, 690.0, 199.0, 407.0, 840.0, 654.0, 290.0, 428.0, 817.0, 254.0, 98.0, 405.0, 539.0, 844.0, 458.0, 586.0, 903.0, 279.0], [436.0, 353.0, 232.0, 539.0, 934.0, 554.0, 675.0, 447.0, 346.0, 826.0, 221.0, 305.0, 682.0, 748.0, 311.0, 123.0, 846.0, 836.0, 182.0, 501.0, 998.0, 126.0, 722.0, 931.0, 890.0, 819.0, 447.0, 931.0, 500.0, 985.0], [15.0, 815.0, 783.0, 889.0, 513.0, 744.0, 541.0, 186.0, 346.0, 152.0, 542.0, 186.0, 589.0, 529.0, 650.0, 121.0, 288.0, 386.0, 567.0, 826.0, 624.0, 877.0, 990.0, 287.0, 657.0, 190.0, 971.0, 249.0, 696.0, 304.0], [67.0, 197.0, 285.0, 429.0, 275.0, 855.0, 473.0, 69.0, 669.0, 397.0, 813.0, 724.0, 996.0, 962.0, 432.0, 323.0, 261.0, 56.0, 822.0, 993.0, 521.0, 691.0, 895.0, 921.0, 365.0, 43.0, 941.0, 728.0, 283.0, 780.0], [835.0, 108.0, 967.0, 60.0, 455.0, 189.0, 482.0, 123.0, 438.0, 654.0, 412.0, 48.0, 509.0, 806.0, 771.0, 942.0, 792.0, 892.0, 278.0, 109.0, 418.0, 479.0, 201.0, 238.0, 136.0, 711.0, 92.0, 441.0, 957.0, 328.0], [620.0, 759.0, 742.0, 544.0, 139.0, 75.0, 606.0, 804.0, 501.0, 958.0, 906.0, 218.0, 900.0, 427.0, 288.0, 850.0, 291.0, 81.0, 595.0, 642.0, 666.0, 909.0, 946.0, 412.0, 694.0, 765.0, 934.0, 812.0, 336.0, 758.0], [228.0, 839.0, 248.0, 823.0, 376.0, 35.0, 709.0, 723.0, 760.0, 454.0, 896.0, 251.0, 213.0, 270.0, 297.0, 670.0, 611.0, 527.0, 715.0, 444.0, 524.0, 810.0, 363.0, 748.0, 75.0, 650.0, 574.0, 488.0, 867.0, 79.0], [318.0, 452.0, 468.0, 479.0, 966.0, 947.0, 284.0, 380.0, 455.0, 95.0, 591.0, 861.0, 66.0, 700.0, 601.0, 106.0, 10.0, 287.0, 60.0, 463.0, 222.0, 460.0, 445.0, 677.0, 432.0, 633.0, 998.0, 416.0, 306.0, 495.0], [214.0, 134.0, 547.0, 679.0, 370.0, 109.0, 800.0, 408.0, 605.0, 575.0, 856.0, 143.0, 386.0, 87.0, 317.0, 447.0, 891.0, 995.0, 702.0, 627.0, 187.0, 71.0, 620.0, 884.0, 473.0, 721.0, 309.0, 529.0, 73.0, 885.0], [693.0, 604.0, 914.0, 21.0, 942.0, 312.0, 538.0, 594.0, 618.0, 114.0, 562.0, 891.0, 873.0, 908.0, 390.0, 760.0, 853.0, 524.0, 695.0, 548.0, 571.0, 907.0, 560.0, 694.0, 239.0, 47.0, 442.0, 921.0, 175.0, 664.0], [589.0, 549.0, 773.0, 203.0, 982.0, 920.0, 692.0, 891.0, 466.0, 339.0, 920.0, 608.0, 96.0, 154.0, 359.0, 445.0, 187.0, 865.0, 608.0, 258.0, 538.0, 731.0, 570.0, 739.0, 320.0, 916.0, 548.0, 616.0, 716.0, 138.0], [131.0, 890.0, 40.0, 15.0, 300.0, 596.0, 905.0, 263.0, 420.0, 373.0, 445.0, 215.0, 665.0, 430.0, 456.0, 790.0, 980.0, 947.0, 144.0, 469.0, 484.0, 740.0, 81.0, 684.0, 913.0, 47.0, 74.0, 244.0, 672.0, 459.0], [768.0, 872.0, 962.0, 956.0, 125.0, 992.0, 113.0, 418.0, 705.0, 23.0, 617.0, 363.0, 846.0, 998.0, 171.0, 316.0, 320.0, 51.0, 90.0, 251.0, 394.0, 63.0, 287.0, 300.0, 794.0, 917.0, 909.0, 236.0, 106.0, 336.0], [895.0, 499.0, 993.0, 74.0, 434.0, 741.0, 323.0, 267.0, 818.0, 676.0, 184.0, 41.0, 929.0, 808.0, 169.0, 706.0, 928.0, 549.0, 269.0, 545.0, 43.0, 402.0, 382.0, 401.0, 572.0, 874.0, 963.0, 629.0, 637.0, 5.0], [246.0, 669.0, 169.0, 915.0, 603.0, 470.0, 493.0, 684.0, 87.0, 827.0, 984.0, 564.0, 861.0, 863.0, 444.0, 341.0, 647.0, 161.0, 530.0, 238.0, 202.0, 559.0, 602.0, 624.0, 695.0, 239.0, 646.0, 481.0, 922.0, 797.0], [46.0, 698.0, 746.0, 387.0, 128.0, 323.0, 233.0, 289.0, 471.0, 67.0, 394.0, 244.0, 14.0, 91.0, 280.0, 222.0, 324.0, 290.0, 7.0, 761.0, 605.0, 33.0, 714.0, 321.0, 592.0, 321.0, 485.0, 797.0, 673.0, 169.0], [190.0, 931.0, 762.0, 977.0, 723.0, 388.0, 678.0, 119.0, 441.0, 589.0, 148.0, 86.0, 552.0, 276.0, 612.0, 308.0, 530.0, 668.0, 638.0, 200.0, 833.0, 596.0, 688.0, 73.0, 576.0, 247.0, 805.0, 390.0, 663.0, 804.0], [285.0, 716.0, 333.0, 85.0, 99.0, 244.0, 593.0, 403.0, 284.0, 927.0, 520.0, 945.0, 344.0, 683.0, 644.0, 208.0, 239.0, 730.0, 831.0, 82.0, 787.0, 665.0, 27.0, 416.0, 34.0, 609.0, 732.0, 971.0, 7.0, 24.0], [370.0, 679.0, 553.0, 89.0, 597.0, 776.0, 467.0, 418.0, 564.0, 788.0, 489.0, 56.0, 217.0, 580.0, 388.0, 147.0, 268.0, 670.0, 784.0, 817.0, 783.0, 893.0, 566.0, 303.0, 817.0, 293.0, 219.0, 835.0, 118.0, 64.0], [966.0, 167.0, 741.0, 193.0, 541.0, 769.0, 304.0, 432.0, 637.0, 195.0, 12.0, 749.0, 310.0, 864.0, 434.0, 763.0, 735.0, 450.0, 876.0, 159.0, 425.0, 828.0, 715.0, 437.0, 665.0, 78.0, 160.0, 786.0, 384.0, 782.0], [609.0, 951.0, 367.0, 640.0, 207.0, 611.0, 479.0, 953.0, 380.0, 97.0, 141.0, 861.0, 27.0, 447.0, 367.0, 718.0, 353.0, 540.0, 219.0, 948.0, 281.0, 350.0, 463.0, 506.0, 175.0, 941.0, 337.0, 718.0, 528.0, 671.0], [393.0, 609.0, 882.0, 92.0, 983.0, 512.0, 11.0, 174.0, 245.0, 240.0, 552.0, 183.0, 114.0, 85.0, 280.0, 784.0, 594.0, 28.0, 772.0, 383.0, 928.0, 899.0, 283.0, 844.0, 109.0, 727.0, 840.0, 815.0, 780.0, 333.0], [305.0, 792.0, 268.0, 764.0, 473.0, 351.0, 567.0, 783.0, 526.0, 651.0, 548.0, 153.0, 672.0, 531.0, 108.0, 865.0, 637.0, 780.0, 209.0, 399.0, 956.0, 989.0, 106.0, 809.0, 43.0, 697.0, 770.0, 90.0, 523.0, 754.0], [373.0, 609.0, 57.0, 852.0, 797.0, 668.0, 744.0, 498.0, 9.0, 573.0, 534.0, 80.0, 360.0, 965.0, 178.0, 678.0, 357.0, 5.0, 4.0, 847.0, 32.0, 221.0, 323.0, 430.0, 52.0, 669.0, 174.0, 653.0, 896.0, 894.0], [960.0, 266.0, 761.0, 558.0, 509.0, 226.0, 295.0, 91.0, 543.0, 129.0, 27.0, 216.0, 291.0, 283.0, 743.0, 669.0, 488.0, 439.0, 777.0, 328.0, 996.0, 599.0, 227.0, 89.0, 380.0, 970.0, 995.0, 269.0, 950.0, 740.0], [293.0, 242.0, 604.0, 482.0, 725.0, 540.0, 389.0, 791.0, 713.0, 299.0, 113.0, 137.0, 230.0, 304.0, 804.0, 848.0, 152.0, 824.0, 576.0, 895.0, 397.0, 373.0, 952.0, 295.0, 527.0, 140.0, 333.0, 194.0, 4.0, 399.0], [926.0, 505.0, 532.0, 366.0, 603.0, 711.0, 455.0, 683.0, 9.0, 712.0, 960.0, 68.0, 493.0, 303.0, 189.0, 187.0, 428.0, 640.0, 181.0, 586.0, 539.0, 353.0, 821.0, 723.0, 69.0, 795.0, 680.0, 591.0, 226.0, 971.0], [985.0, 288.0, 103.0, 382.0, 81.0, 912.0, 308.0, 376.0, 807.0, 308.0, 574.0, 513.0, 615.0, 75.0, 7.0, 345.0, 788.0, 946.0, 776.0, 970.0, 554.0, 330.0, 100.0, 225.0, 435.0, 830.0, 538.0, 466.0, 477.0, 296.0], [127.0, 98.0, 222.0, 354.0, 305.0, 318.0, 839.0, 37.0, 524.0, 201.0, 577.0, 95.0, 643.0, 967.0, 835.0, 880.0, 738.0, 170.0, 250.0, 794.0, 668.0, 164.0, 548.0, 588.0, 382.0, 770.0, 695.0, 712.0, 59.0, 469.0], [45.0, 112.0, 673.0, 521.0, 351.0, 850.0, 856.0, 239.0, 983.0, 91.0, 801.0, 610.0, 724.0, 828.0, 983.0, 53.0, 435.0, 38.0, 294.0, 707.0, 436.0, 898.0, 907.0, 128.0, 852.0, 892.0, 259.0, 743.0, 482.0, 217.0], [765.0, 562.0, 221.0, 536.0, 175.0, 508.0, 362.0, 738.0, 383.0, 704.0, 939.0, 173.0, 722.0, 378.0, 314.0, 853.0, 362.0, 713.0, 118.0, 391.0, 204.0, 378.0, 219.0, 685.0, 152.0, 37.0, 511.0, 725.0, 587.0, 76.0], [877.0, 477.0, 329.0, 109.0, 860.0, 494.0, 975.0, 964.0, 874.0, 301.0, 693.0, 778.0, 185.0, 227.0, 461.0, 652.0, 185.0, 242.0, 645.0, 442.0, 47.0, 119.0, 294.0, 857.0, 48.0, 557.0, 500.0, 776.0, 648.0, 523.0], [45.0, 212.0, 765.0, 741.0, 185.0, 579.0, 180.0, 191.0, 836.0, 949.0, 432.0, 963.0, 126.0, 170.0, 679.0, 374.0, 380.0, 861.0, 492.0, 89.0, 780.0, 53.0, 509.0, 673.0, 91.0, 813.0, 770.0, 662.0, 752.0, 691.0], [126.0, 644.0, 475.0, 970.0, 638.0, 619.0, 541.0, 188.0, 856.0, 36.0, 919.0, 375.0, 86.0, 596.0, 801.0, 918.0, 959.0, 731.0, 414.0, 472.0, 788.0, 425.0, 640.0, 113.0, 531.0, 926.0, 387.0, 393.0, 569.0, 607.0], [120.0, 309.0, 360.0, 1000.0, 243.0, 443.0, 262.0, 475.0, 319.0, 654.0, 897.0, 971.0, 518.0, 368.0, 489.0, 215.0, 880.0, 751.0, 659.0, 459.0, 479.0, 733.0, 112.0, 32.0, 562.0, 695.0, 5.0, 552.0, 595.0, 232.0], [222.0, 38.0, 328.0, 149.0, 550.0, 502.0, 379.0, 105.0, 635.0, 953.0, 89.0, 874.0, 57.0, 587.0, 19.0, 532.0, 443.0, 357.0, 923.0, 476.0, 741.0, 964.0, 353.0, 285.0, 754.0, 199.0, 375.0, 173.0, 220.0, 587.0], [494.0, 859.0, 559.0, 293.0, 523.0, 923.0, 375.0, 295.0, 392.0, 398.0, 493.0, 512.0, 516.0, 297.0, 837.0, 596.0, 968.0, 524.0, 110.0, 826.0, 570.0, 700.0, 789.0, 699.0, 787.0, 275.0, 561.0, 496.0, 467.0, 693.0], [23.0, 973.0, 633.0, 901.0, 585.0, 778.0, 402.0, 750.0, 631.0, 921.0, 102.0, 187.0, 559.0, 829.0, 948.0, 151.0, 312.0, 655.0, 167.0, 102.0, 488.0, 466.0, 229.0, 322.0, 909.0, 644.0, 431.0, 880.0, 775.0, 658.0], [910.0, 930.0, 214.0, 910.0, 402.0, 112.0, 854.0, 436.0, 571.0, 761.0, 61.0, 828.0, 162.0, 373.0, 411.0, 907.0, 524.0, 696.0, 307.0, 196.0, 18.0, 858.0, 780.0, 500.0, 656.0, 87.0, 256.0, 622.0, 944.0, 342.0], [134.0, 821.0, 610.0, 625.0, 576.0, 786.0, 841.0, 542.0, 56.0, 589.0, 765.0, 447.0, 548.0, 943.0, 564.0, 659.0, 256.0, 24.0, 519.0, 670.0, 20.0, 361.0, 668.0, 763.0, 75.0, 338.0, 452.0, 452.0, 731.0, 819.0], [750.0, 800.0, 566.0, 377.0, 646.0, 456.0, 696.0, 362.0, 779.0, 701.0, 227.0, 668.0, 889.0, 874.0, 385.0, 527.0, 494.0, 396.0, 656.0, 160.0, 929.0, 552.0, 882.0, 320.0, 959.0, 315.0, 36.0, 804.0, 557.0, 170.0], [313.0, 139.0, 658.0, 691.0, 405.0, 46.0, 440.0, 288.0, 549.0, 67.0, 310.0, 372.0, 695.0, 548.0, 111.0, 839.0, 285.0, 790.0, 811.0, 148.0, 454.0, 547.0, 104.0, 299.0, 723.0, 567.0, 374.0, 871.0, 852.0, 45.0], [823.0, 989.0, 69.0, 241.0, 233.0, 10.0, 324.0, 631.0, 312.0, 243.0, 890.0, 895.0, 370.0, 111.0, 459.0, 188.0, 187.0, 838.0, 905.0, 967.0, 849.0, 64.0, 105.0, 980.0, 792.0, 590.0, 514.0, 242.0, 445.0, 277.0], [171.0, 725.0, 225.0, 897.0, 860.0, 938.0, 139.0, 122.0, 769.0, 294.0, 140.0, 787.0, 222.0, 897.0, 742.0, 530.0, 45.0, 456.0, 857.0, 833.0, 99.0, 850.0, 289.0, 399.0, 898.0, 782.0, 989.0, 822.0, 183.0, 2.0], [768.0, 292.0, 835.0, 685.0, 226.0, 267.0, 666.0, 949.0, 232.0, 419.0, 441.0, 865.0, 420.0, 541.0, 559.0, 504.0, 43.0, 926.0, 424.0, 517.0, 272.0, 790.0, 340.0, 774.0, 616.0, 596.0, 767.0, 223.0, 637.0, 47.0], [95.0, 751.0, 857.0, 20.0, 412.0, 363.0, 731.0, 186.0, 819.0, 584.0, 477.0, 666.0, 562.0, 997.0, 452.0, 888.0, 320.0, 391.0, 445.0, 287.0, 851.0, 92.0, 899.0, 651.0, 601.0, 656.0, 316.0, 919.0, 161.0, 690.0], [891.0, 298.0, 837.0, 188.0, 439.0, 216.0, 282.0, 354.0, 907.0, 807.0, 472.0, 765.0, 35.0, 850.0, 913.0, 214.0, 369.0, 658.0, 180.0, 277.0, 425.0, 714.0, 765.0, 635.0, 307.0, 850.0, 369.0, 157.0, 454.0, 767.0], [885.0, 652.0, 229.0, 42.0, 338.0, 649.0, 147.0, 71.0, 248.0, 94.0, 207.0, 959.0, 378.0, 168.0, 755.0, 430.0, 190.0, 146.0, 229.0, 237.0, 153.0, 667.0, 725.0, 760.0, 641.0, 893.0, 8.0, 48.0, 51.0, 430.0], [848.0, 982.0, 328.0, 451.0, 126.0, 865.0, 285.0, 433.0, 562.0, 164.0, 882.0, 913.0, 964.0, 31.0, 941.0, 266.0, 719.0, 69.0, 753.0, 563.0, 804.0, 476.0, 698.0, 937.0, 471.0, 784.0, 844.0, 389.0, 599.0, 879.0], [909.0, 775.0, 991.0, 306.0, 709.0, 344.0, 70.0, 617.0, 23.0, 703.0, 625.0, 899.0, 260.0, 164.0, 158.0, 290.0, 643.0, 46.0, 987.0, 999.0, 678.0, 540.0, 201.0, 956.0, 764.0, 926.0, 378.0, 985.0, 864.0, 83.0], [251.0, 156.0, 727.0, 47.0, 679.0, 2.0, 624.0, 137.0, 152.0, 856.0, 487.0, 702.0, 649.0, 264.0, 924.0, 742.0, 737.0, 375.0, 868.0, 853.0, 314.0, 8.0, 927.0, 514.0, 789.0, 143.0, 243.0, 651.0, 699.0, 105.0], [905.0, 783.0, 108.0, 137.0, 547.0, 202.0, 233.0, 375.0, 24.0, 276.0, 140.0, 426.0, 875.0, 937.0, 395.0, 821.0, 241.0, 458.0, 762.0, 359.0, 939.0, 627.0, 824.0, 1.0, 583.0, 828.0, 761.0, 370.0, 229.0, 185.0], [567.0, 309.0, 242.0, 517.0, 461.0, 64.0, 462.0, 471.0, 935.0, 647.0, 79.0, 918.0, 554.0, 518.0, 376.0, 924.0, 144.0, 303.0, 530.0, 288.0, 366.0, 510.0, 336.0, 174.0, 512.0, 131.0, 530.0, 779.0, 882.0, 941.0], [218.0, 843.0, 140.0, 394.0, 95.0, 174.0, 249.0, 523.0, 834.0, 165.0, 642.0, 959.0, 572.0, 12.0, 197.0, 47.0, 450.0, 978.0, 20.0, 664.0, 3.0, 306.0, 253.0, 483.0, 605.0, 283.0, 467.0, 214.0, 359.0, 586.0], [582.0, 448.0, 961.0, 31.0, 989.0, 272.0, 941.0, 868.0, 2.0, 457.0, 909.0, 293.0, 989.0, 221.0, 321.0, 832.0, 468.0, 718.0, 67.0, 999.0, 16.0, 909.0, 228.0, 457.0, 485.0, 86.0, 964.0, 838.0, 420.0, 920.0], [264.0, 17.0, 87.0, 726.0, 350.0, 437.0, 23.0, 655.0, 346.0, 543.0, 690.0, 528.0, 870.0, 656.0, 454.0, 784.0, 914.0, 656.0, 828.0, 43.0, 448.0, 840.0, 329.0, 675.0, 603.0, 998.0, 775.0, 371.0, 538.0, 230.0], [728.0, 948.0, 444.0, 733.0, 88.0, 717.0, 990.0, 761.0, 812.0, 983.0, 828.0, 295.0, 294.0, 700.0, 880.0, 831.0, 208.0, 629.0, 655.0, 869.0, 501.0, 452.0, 923.0, 948.0, 901.0, 111.0, 371.0, 119.0, 27.0, 738.0], [246.0, 848.0, 643.0, 878.0, 333.0, 93.0, 437.0, 556.0, 159.0, 26.0, 817.0, 164.0, 875.0, 64.0, 708.0, 108.0, 418.0, 525.0, 208.0, 272.0, 436.0, 147.0, 903.0, 888.0, 106.0, 62.0, 810.0, 527.0, 404.0, 56.0], [788.0, 805.0, 236.0, 406.0, 362.0, 907.0, 310.0, 440.0, 849.0, 729.0, 872.0, 115.0, 560.0, 115.0, 942.0, 754.0, 963.0, 693.0, 81.0, 862.0, 240.0, 211.0, 703.0, 313.0, 298.0, 569.0, 311.0, 981.0, 65.0, 194.0], [263.0, 41.0, 797.0, 912.0, 75.0, 719.0, 869.0, 877.0, 80.0, 97.0, 710.0, 867.0, 459.0, 285.0, 410.0, 454.0, 862.0, 73.0, 873.0, 809.0, 766.0, 549.0, 47.0, 114.0, 957.0, 773.0, 130.0, 581.0, 87.0, 210.0], [581.0, 601.0, 876.0, 512.0, 386.0, 507.0, 429.0, 748.0, 47.0, 854.0, 69.0, 66.0, 763.0, 637.0, 954.0, 222.0, 535.0, 355.0, 473.0, 934.0, 866.0, 785.0, 802.0, 623.0, 163.0, 37.0, 808.0, 620.0, 860.0, 664.0], [858.0, 711.0, 680.0, 547.0, 600.0, 262.0, 521.0, 802.0, 828.0, 1000.0, 587.0, 401.0, 907.0, 957.0, 417.0, 228.0, 141.0, 751.0, 9.0, 757.0, 63.0, 110.0, 453.0, 370.0, 177.0, 134.0, 4.0, 651.0, 895.0, 550.0], [640.0, 135.0, 914.0, 385.0, 831.0, 13.0, 87.0, 247.0, 198.0, 210.0, 498.0, 204.0, 899.0, 275.0, 772.0, 788.0, 781.0, 711.0, 702.0, 939.0, 451.0, 657.0, 218.0, 307.0, 372.0, 787.0, 30.0, 819.0, 46.0, 183.0], [549.0, 230.0, 243.0, 579.0, 963.0, 349.0, 563.0, 483.0, 538.0, 451.0, 863.0, 114.0, 791.0, 191.0, 137.0, 780.0, 577.0, 915.0, 414.0, 241.0, 59.0, 349.0, 583.0, 583.0, 188.0, 352.0, 297.0, 988.0, 392.0, 322.0], [35.0, 972.0, 982.0, 190.0, 542.0, 426.0, 45.0, 927.0, 670.0, 934.0, 22.0, 636.0, 203.0, 919.0, 505.0, 289.0, 40.0, 14.0, 918.0, 759.0, 709.0, 324.0, 101.0, 756.0, 703.0, 427.0, 326.0, 367.0, 261.0, 746.0], [530.0, 165.0, 547.0, 651.0, 639.0, 176.0, 820.0, 561.0, 438.0, 488.0, 531.0, 251.0, 671.0, 147.0, 770.0, 244.0, 74.0, 337.0, 973.0, 13.0, 186.0, 441.0, 779.0, 511.0, 156.0, 283.0, 937.0, 852.0, 907.0, 301.0], [592.0, 680.0, 104.0, 955.0, 923.0, 681.0, 525.0, 655.0, 576.0, 110.0, 975.0, 452.0, 690.0, 350.0, 912.0, 451.0, 792.0, 105.0, 981.0, 736.0, 724.0, 104.0, 927.0, 771.0, 718.0, 570.0, 113.0, 463.0, 272.0, 199.0]]

==== Results ====
Time limit reached
Cost: 56842.0
Runtime: 1800.006910085678
Vars:
x_0:0.0
x_1:0.0
x_2:0.0
x_3:0.0
x_4:0.0
x_5:0.0
x_6:1.0
x_7:0.0
x_8:0.0
x_9:0.0
x_10:0.0
x_11:0.0
x_12:0.0
x_13:1.0
x_14:1.0
x_15:0.0
x_16:0.0
x_17:0.0
x_18:0.0
x_19:0.0
x_20:0.0
x_21:0.0
x_22:1.0
x_23:1.0
x_24:0.0
x_25:1.0
x_26:0.0
x_27:1.0
x_28:0.0
x_29:0.0
x_30:1.0
x_31:0.0
x_32:1.0
x_33:0.0
x_34:0.0
x_35:0.0
x_36:0.0
x_37:0.0
x_38:0.0
x_39:0.0
x_40:0.0
x_41:0.0
x_42:0.0
x_43:0.0
x_44:0.0
x_45:0.0
x_46:0.0
x_47:0.0
x_48:1.0
x_49:0.0
x_50:0.0
x_51:0.0
x_52:0.0
x_53:0.0
x_54:1.0
x_55:0.0
x_56:0.0
x_57:1.0
x_58:1.0
x_59:0.0
x_60:1.0
x_61:0.0
x_62:0.0
x_63:0.0
x_64:1.0
x_65:0.0
x_66:0.0
x_67:0.0
x_68:0.0
x_69:0.0
x_70:0.0
x_71:1.0
x_72:1.0
x_73:1.0
x_74:0.0
x_75:0.0
x_76:0.0
x_77:0.0
x_78:0.0
x_79:0.0
x_80:0.0
x_81:0.0
x_82:0.0
x_83:0.0
x_84:0.0
x_85:0.0
x_86:1.0
x_87:0.0
x_88:0.0
x_89:0.0
x_90:0.0
x_91:1.0
x_92:0.0
x_93:1.0
x_94:0.0
x_95:1.0
x_96:0.0
x_97:1.0
x_98:1.0
x_99:0.0
x_100:1.0
x_101:1.0
x_102:1.0
x_103:0.0
x_104:0.0
x_105:0.0
x_106:1.0
x_107:0.0
x_108:0.0
x_109:0.0
x_110:1.0
x_111:0.0
x_112:0.0
x_113:0.0
x_114:0.0
x_115:0.0
x_116:0.0
x_117:0.0
x_118:0.0
x_119:1.0
x_120:0.0
x_121:0.0
x_122:0.0
x_123:0.0
x_124:0.0
x_125:0.0
x_126:0.0
x_127:0.0
x_128:0.0
x_129:0.0
x_130:0.0
x_131:1.0
x_132:0.0
x_133:0.0
x_134:0.0
x_135:1.0
x_136:0.0
x_137:1.0
x_138:0.0
x_139:1.0
x_140:0.0
x_141:1.0
x_142:1.0
x_143:0.0
x_144:0.0
x_145:1.0
x_146:0.0
x_147:1.0
x_148:0.0
x_149:0.0
x_150:0.0
x_151:0.0
x_152:0.0
x_153:0.0
x_154:0.0
x_155:1.0
x_156:0.0
x_157:0.0
x_158:1.0
x_159:0.0
x_160:0.0
x_161:0.0
x_162:0.0
x_163:1.0
x_164:0.0
x_165:1.0
x_166:0.0
x_167:1.0
x_168:0.0
x_169:1.0
x_170:0.0
x_171:0.0
x_172:1.0
x_173:0.0
x_174:0.0
x_175:0.0
x_176:0.0
x_177:0.0
x_178:0.0
x_179:0.0
x_180:0.0
x_181:1.0
x_182:1.0
x_183:0.0
x_184:0.0
x_185:0.0
x_186:0.0
x_187:0.0
x_188:0.0
x_189:0.0
x_190:0.0
x_191:0.0
x_192:0.0
x_193:0.0
x_194:0.0
x_195:0.0
x_196:1.0
x_197:1.0
x_198:0.0
x_199:1.0
x_200:0.0
x_201:0.0
x_202:1.0
x_203:0.0
x_204:1.0
x_205:1.0
x_206:1.0
x_207:1.0
x_208:0.0
x_209:0.0
x_210:0.0
x_211:1.0
x_212:0.0
x_213:0.0
x_214:0.0
x_215:0.0
x_216:0.0
x_217:1.0
x_218:0.0
x_219:0.0
x_220:0.0
x_221:0.0
x_222:0.0
x_223:0.0
x_224:0.0
x_225:1.0
x_226:1.0
x_227:0.0
x_228:0.0
x_229:0.0
x_230:0.0
x_231:0.0
x_232:0.0
x_233:1.0
x_234:0.0
x_235:0.0
x_236:1.0
x_237:0.0
x_238:0.0
x_239:0.0
x_240:1.0
x_241:0.0
x_242:0.0
x_243:0.0
x_244:0.0
x_245:0.0
x_246:0.0
x_247:1.0
x_248:0.0
x_249:0.0