Knapsack Problem
 n = 250
 m = 10
 optimalSolution = 0.0
 p_item = [424.0, 609.0, 654.0, 541.0, 785.0, 728.0, 770.0, 595.0, 868.0, 949.0, 492.0, 615.0, 845.0, 430.0, 516.0, 867.0, 730.0, 742.0, 603.0, 416.0, 682.0, 394.0, 619.0, 530.0, 605.0, 946.0, 714.0, 499.0, 846.0, 677.0, 671.0, 696.0, 943.0, 678.0, 862.0, 828.0, 970.0, 896.0, 663.0, 444.0, 725.0, 740.0, 513.0, 713.0, 816.0, 779.0, 874.0, 649.0, 697.0, 717.0, 417.0, 866.0, 909.0, 623.0, 930.0, 631.0, 961.0, 420.0, 974.0, 654.0, 973.0, 1060.0, 679.0, 450.0, 661.0, 1041.0, 764.0, 843.0, 812.0, 526.0, 748.0, 920.0, 586.0, 643.0, 889.0, 658.0, 685.0, 934.0, 963.0, 658.0, 923.0, 627.0, 329.0, 640.0, 986.0, 835.0, 920.0, 561.0, 808.0, 775.0, 831.0, 703.0, 999.0, 968.0, 492.0, 634.0, 1069.0, 709.0, 605.0, 772.0, 473.0, 598.0, 540.0, 679.0, 627.0, 614.0, 495.0, 782.0, 929.0, 943.0, 710.0, 708.0, 503.0, 750.0, 882.0, 814.0, 472.0, 734.0, 1067.0, 562.0, 651.0, 1016.0, 811.0, 598.0, 1144.0, 737.0, 641.0, 565.0, 696.0, 750.0, 720.0, 852.0, 1033.0, 832.0, 1069.0, 818.0, 691.0, 894.0, 833.0, 896.0, 885.0, 798.0, 778.0, 788.0, 733.0, 813.0, 726.0, 779.0, 972.0, 963.0, 983.0, 1009.0, 898.0, 762.0, 1001.0, 593.0, 535.0, 676.0, 820.0, 749.0, 625.0, 606.0, 699.0, 571.0, 813.0, 951.0, 660.0, 618.0, 632.0, 650.0, 891.0, 638.0, 914.0, 867.0, 457.0, 726.0, 990.0, 858.0, 836.0, 708.0, 831.0, 753.0, 776.0, 762.0, 511.0, 469.0, 712.0, 893.0, 576.0, 629.0, 1069.0, 620.0, 784.0, 715.0, 509.0, 568.0, 906.0, 916.0, 596.0, 727.0, 477.0, 629.0, 705.0, 707.0, 982.0, 468.0, 667.0, 572.0, 751.0, 841.0, 656.0, 983.0, 703.0, 339.0, 608.0, 574.0, 634.0, 1059.0, 844.0, 555.0, 496.0, 814.0, 923.0, 569.0, 561.0, 746.0, 922.0, 889.0, 618.0, 424.0, 957.0, 667.0, 531.0, 861.0, 454.0, 752.0, 743.0, 842.0, 673.0, 445.0, 504.0, 756.0, 761.0, 887.0, 603.0, 468.0, 853.0, 642.0, 822.0, 652.0]
 x_item = [None, None, None, None, None, None, None, None, None, None, None, None, None, None, None, None, None, None, None, None, None, None, None, None, None, None, None, None, None, None, None, None, None, None, None, None, None, None, None, None, None, None, None, None, None, None, None, None, None, None, None, None, None, None, None, None, None, None, None, None, None, None, None, None, None, None, None, None, None, None, None, None, None, None, None, None, None, None, None, None, None, None, None, None, None, None, None, None, None, None, None, None, None, None, None, None, None, None, None, None, None, None, None, None, None, None, None, None, None, None, None, None, None, None, None, None, None, None, None, None, None, None, None, None, None, None, None, None, None, None, None, None, None, None, None, None, None, None, None, None, None, None, None, None, None, None, None, None, None, None, None, None, None, None, None, None, None, None, None, None, None, None, None, None, None, None, None, None, None, None, None, None, None, None, None, None, None, None, None, None, None, None, None, None, None, None, None, None, None, None, None, None, None, None, None, None, None, None, None, None, None, None, None, None, None, None, None, None, None, None, None, None, None, None, None, None, None, None, None, None, None, None, None, None, None, None, None, None, None, None, None, None, None, None, None, None, None, None, None, None, None, None, None, None, None, None, None, None, None, None]
 b_dimension = [31914.0, 30923.0, 30316.0, 33477.0, 30182.0, 29126.0, 29031.0, 31495.0, 30586.0, 30020.0]
 w_item_dimension = [[727.0, 682.0, 224.0, 14.0, 393.0, 309.0, 567.0, 131.0, 470.0, 27.0], [546.0, 920.0, 887.0, 778.0, 156.0, 363.0, 293.0, 665.0, 131.0, 903.0], [265.0, 463.0, 159.0, 170.0, 262.0, 377.0, 677.0, 193.0, 726.0, 312.0], [49.0, 373.0, 938.0, 424.0, 186.0, 862.0, 45.0, 521.0, 392.0, 91.0], [992.0, 912.0, 596.0, 345.0, 323.0, 271.0, 575.0, 521.0, 277.0, 559.0], [474.0, 194.0, 532.0, 191.0, 84.0, 974.0, 386.0, 896.0, 938.0, 400.0], [282.0, 550.0, 378.0, 832.0, 837.0, 363.0, 27.0, 745.0, 695.0, 368.0], [640.0, 25.0, 132.0, 492.0, 148.0, 795.0, 846.0, 489.0, 567.0, 622.0], [672.0, 346.0, 536.0, 902.0, 698.0, 770.0, 168.0, 445.0, 837.0, 873.0], [748.0, 81.0, 290.0, 766.0, 764.0, 774.0, 293.0, 578.0, 5.0, 522.0], [975.0, 135.0, 91.0, 199.0, 743.0, 19.0, 671.0, 658.0, 425.0, 466.0], [353.0, 419.0, 13.0, 58.0, 591.0, 954.0, 709.0, 748.0, 482.0, 818.0], [700.0, 909.0, 872.0, 638.0, 917.0, 545.0, 689.0, 429.0, 823.0, 447.0], [546.0, 229.0, 884.0, 100.0, 318.0, 506.0, 486.0, 45.0, 568.0, 98.0], [806.0, 158.0, 520.0, 518.0, 513.0, 463.0, 474.0, 347.0, 440.0, 301.0], [529.0, 200.0, 710.0, 955.0, 374.0, 717.0, 589.0, 40.0, 899.0, 662.0], [495.0, 722.0, 57.0, 562.0, 55.0, 521.0, 263.0, 474.0, 329.0, 77.0], [981.0, 822.0, 159.0, 691.0, 116.0, 483.0, 861.0, 449.0, 106.0, 849.0], [237.0, 207.0, 388.0, 366.0, 901.0, 845.0, 272.0, 578.0, 955.0, 705.0], [661.0, 6.0, 742.0, 180.0, 344.0, 188.0, 140.0, 213.0, 784.0, 820.0], [196.0, 609.0, 639.0, 385.0, 847.0, 664.0, 136.0, 582.0, 586.0, 336.0], [924.0, 177.0, 49.0, 686.0, 424.0, 283.0, 337.0, 152.0, 391.0, 65.0], [672.0, 783.0, 593.0, 432.0, 462.0, 67.0, 118.0, 727.0, 122.0, 724.0], [520.0, 331.0, 535.0, 752.0, 214.0, 690.0, 386.0, 323.0, 481.0, 211.0], [232.0, 30.0, 943.0, 623.0, 937.0, 537.0, 58.0, 923.0, 400.0, 742.0], [896.0, 722.0, 654.0, 699.0, 663.0, 152.0, 85.0, 570.0, 33.0, 47.0], [309.0, 113.0, 632.0, 20.0, 151.0, 661.0, 491.0, 852.0, 462.0, 789.0], [852.0, 256.0, 156.0, 277.0, 67.0, 449.0, 779.0, 146.0, 984.0, 98.0], [941.0, 470.0, 467.0, 725.0, 162.0, 229.0, 906.0, 672.0, 546.0, 517.0], [120.0, 630.0, 309.0, 244.0, 716.0, 637.0, 604.0, 590.0, 861.0, 860.0], [414.0, 15.0, 884.0, 810.0, 286.0, 487.0, 217.0, 691.0, 171.0, 826.0], [825.0, 852.0, 196.0, 777.0, 925.0, 158.0, 813.0, 67.0, 316.0, 464.0], [501.0, 729.0, 609.0, 779.0, 974.0, 184.0, 862.0, 667.0, 517.0, 18.0], [408.0, 421.0, 919.0, 524.0, 942.0, 371.0, 86.0, 384.0, 430.0, 139.0], [356.0, 734.0, 297.0, 915.0, 20.0, 920.0, 232.0, 942.0, 854.0, 394.0], [809.0, 455.0, 536.0, 972.0, 5.0, 109.0, 248.0, 378.0, 614.0, 763.0], [13.0, 20.0, 730.0, 469.0, 481.0, 745.0, 922.0, 844.0, 415.0, 150.0], [576.0, 474.0, 955.0, 833.0, 897.0, 402.0, 649.0, 613.0, 421.0, 202.0], [571.0, 231.0, 352.0, 821.0, 490.0, 867.0, 158.0, 356.0, 94.0, 802.0], [119.0, 213.0, 91.0, 202.0, 263.0, 331.0, 119.0, 623.0, 384.0, 711.0], [830.0, 925.0, 595.0, 56.0, 567.0, 920.0, 843.0, 143.0, 613.0, 32.0], [293.0, 850.0, 554.0, 989.0, 302.0, 802.0, 681.0, 567.0, 763.0, 745.0], [930.0, 711.0, 831.0, 281.0, 690.0, 92.0, 440.0, 144.0, 324.0, 368.0], [635.0, 646.0, 134.0, 262.0, 690.0, 533.0, 187.0, 961.0, 305.0, 666.0], [858.0, 318.0, 333.0, 315.0, 189.0, 132.0, 140.0, 975.0, 813.0, 677.0], [778.0, 574.0, 509.0, 149.0, 625.0, 199.0, 963.0, 368.0, 812.0, 69.0], [359.0, 86.0, 674.0, 196.0, 883.0, 328.0, 559.0, 601.0, 866.0, 57.0], [974.0, 855.0, 736.0, 704.0, 279.0, 124.0, 226.0, 722.0, 881.0, 585.0], [274.0, 109.0, 637.0, 750.0, 572.0, 452.0, 548.0, 275.0, 827.0, 328.0], [284.0, 217.0, 200.0, 558.0, 62.0, 287.0, 741.0, 568.0, 844.0, 177.0], [213.0, 720.0, 116.0, 479.0, 522.0, 81.0, 147.0, 698.0, 541.0, 139.0], [158.0, 203.0, 8.0, 818.0, 114.0, 476.0, 850.0, 128.0, 636.0, 709.0], [554.0, 306.0, 827.0, 811.0, 905.0, 449.0, 332.0, 74.0, 331.0, 73.0], [584.0, 215.0, 237.0, 986.0, 427.0, 925.0, 190.0, 263.0, 518.0, 944.0], [388.0, 206.0, 188.0, 695.0, 448.0, 507.0, 425.0, 287.0, 386.0, 873.0], [201.0, 624.0, 139.0, 758.0, 34.0, 873.0, 145.0, 41.0, 65.0, 587.0], [25.0, 213.0, 339.0, 871.0, 805.0, 645.0, 169.0, 670.0, 675.0, 526.0], [238.0, 204.0, 585.0, 479.0, 195.0, 276.0, 44.0, 738.0, 345.0, 445.0], [604.0, 441.0, 592.0, 956.0, 704.0, 162.0, 660.0, 20.0, 906.0, 706.0], [953.0, 857.0, 460.0, 264.0, 888.0, 9.0, 983.0, 788.0, 200.0, 359.0], [138.0, 530.0, 638.0, 303.0, 21.0, 831.0, 990.0, 978.0, 678.0, 445.0], [610.0, 208.0, 167.0, 458.0, 840.0, 851.0, 984.0, 550.0, 953.0, 199.0], [753.0, 484.0, 202.0, 922.0, 253.0, 983.0, 820.0, 357.0, 605.0, 744.0], [92.0, 775.0, 143.0, 210.0, 506.0, 160.0, 153.0, 847.0, 149.0, 669.0], [68.0, 223.0, 821.0, 818.0, 145.0, 25.0, 871.0, 651.0, 760.0, 957.0], [358.0, 532.0, 382.0, 534.0, 454.0, 962.0, 972.0, 973.0, 206.0, 93.0], [149.0, 486.0, 901.0, 705.0, 358.0, 55.0, 33.0, 925.0, 319.0, 161.0], [656.0, 454.0, 68.0, 739.0, 692.0, 502.0, 295.0, 916.0, 791.0, 764.0], [521.0, 87.0, 826.0, 547.0, 837.0, 400.0, 149.0, 719.0, 317.0, 624.0], [432.0, 669.0, 723.0, 262.0, 135.0, 376.0, 232.0, 803.0, 174.0, 605.0], [25.0, 746.0, 53.0, 365.0, 193.0, 762.0, 446.0, 168.0, 861.0, 224.0], [32.0, 40.0, 75.0, 911.0, 955.0, 560.0, 496.0, 370.0, 415.0, 732.0], [825.0, 902.0, 431.0, 635.0, 849.0, 25.0, 164.0, 728.0, 216.0, 49.0], [157.0, 35.0, 830.0, 299.0, 90.0, 362.0, 32.0, 887.0, 955.0, 156.0], [258.0, 407.0, 978.0, 261.0, 688.0, 755.0, 750.0, 743.0, 247.0, 185.0], [97.0, 252.0, 699.0, 604.0, 849.0, 113.0, 379.0, 701.0, 977.0, 313.0], [244.0, 523.0, 899.0, 232.0, 208.0, 83.0, 246.0, 335.0, 725.0, 196.0], [715.0, 792.0, 326.0, 406.0, 267.0, 476.0, 406.0, 778.0, 957.0, 365.0], [843.0, 693.0, 995.0, 411.0, 173.0, 437.0, 440.0, 790.0, 587.0, 535.0], [324.0, 604.0, 739.0, 562.0, 190.0, 278.0, 525.0, 414.0, 916.0, 391.0], [930.0, 820.0, 432.0, 560.0, 155.0, 760.0, 814.0, 673.0, 133.0, 306.0], [879.0, 729.0, 707.0, 933.0, 169.0, 423.0, 430.0, 266.0, 854.0, 730.0], [6.0, 895.0, 273.0, 200.0, 199.0, 256.0, 161.0, 503.0, 132.0, 446.0], [121.0, 954.0, 124.0, 968.0, 509.0, 204.0, 921.0, 744.0, 328.0, 788.0], [811.0, 821.0, 534.0, 867.0, 564.0, 651.0, 908.0, 43.0, 836.0, 977.0], [523.0, 974.0, 368.0, 822.0, 634.0, 494.0, 53.0, 931.0, 240.0, 900.0], [322.0, 913.0, 291.0, 270.0, 738.0, 950.0, 669.0, 453.0, 607.0, 991.0], [136.0, 744.0, 101.0, 87.0, 427.0, 242.0, 274.0, 143.0, 92.0, 211.0], [445.0, 654.0, 365.0, 715.0, 554.0, 321.0, 948.0, 100.0, 668.0, 973.0], [197.0, 234.0, 452.0, 781.0, 255.0, 440.0, 9.0, 42.0, 862.0, 666.0], [43.0, 438.0, 955.0, 18.0, 888.0, 560.0, 974.0, 400.0, 201.0, 438.0], [759.0, 881.0, 605.0, 735.0, 806.0, 102.0, 33.0, 473.0, 870.0, 494.0], [784.0, 111.0, 268.0, 341.0, 823.0, 184.0, 780.0, 318.0, 808.0, 690.0], [256.0, 769.0, 693.0, 965.0, 678.0, 933.0, 575.0, 921.0, 237.0, 379.0], [148.0, 787.0, 146.0, 327.0, 985.0, 863.0, 40.0, 651.0, 266.0, 413.0], [370.0, 451.0, 486.0, 731.0, 585.0, 473.0, 719.0, 969.0, 127.0, 280.0], [139.0, 949.0, 237.0, 613.0, 514.0, 496.0, 537.0, 812.0, 816.0, 588.0], [123.0, 572.0, 644.0, 967.0, 995.0, 209.0, 254.0, 561.0, 56.0, 396.0], [21.0, 256.0, 329.0, 132.0, 339.0, 228.0, 34.0, 551.0, 147.0, 782.0], [694.0, 745.0, 78.0, 14.0, 145.0, 234.0, 274.0, 456.0, 420.0, 534.0], [557.0, 233.0, 269.0, 155.0, 453.0, 219.0, 33.0, 491.0, 807.0, 100.0], [467.0, 749.0, 78.0, 934.0, 78.0, 521.0, 679.0, 635.0, 606.0, 696.0], [492.0, 76.0, 75.0, 344.0, 3.0, 463.0, 829.0, 933.0, 302.0, 827.0], [116.0, 43.0, 748.0, 330.0, 886.0, 899.0, 88.0, 610.0, 132.0, 324.0], [819.0, 765.0, 388.0, 879.0, 407.0, 958.0, 158.0, 728.0, 166.0, 524.0], [674.0, 11.0, 839.0, 815.0, 459.0, 625.0, 809.0, 436.0, 405.0, 522.0], [381.0, 302.0, 459.0, 331.0, 583.0, 112.0, 857.0, 734.0, 345.0, 782.0], [941.0, 468.0, 253.0, 596.0, 330.0, 13.0, 413.0, 857.0, 706.0, 207.0], [789.0, 718.0, 593.0, 325.0, 199.0, 492.0, 999.0, 789.0, 886.0, 116.0], [212.0, 965.0, 143.0, 809.0, 996.0, 345.0, 734.0, 964.0, 458.0, 500.0], [826.0, 715.0, 9.0, 852.0, 665.0, 766.0, 868.0, 283.0, 634.0, 296.0], [466.0, 895.0, 668.0, 289.0, 268.0, 316.0, 228.0, 157.0, 474.0, 478.0], [646.0, 87.0, 867.0, 193.0, 341.0, 103.0, 974.0, 803.0, 104.0, 740.0], [53.0, 134.0, 25.0, 936.0, 526.0, 498.0, 592.0, 13.0, 832.0, 989.0], [897.0, 2.0, 163.0, 898.0, 139.0, 706.0, 754.0, 795.0, 282.0, 298.0], [656.0, 225.0, 675.0, 478.0, 42.0, 162.0, 167.0, 558.0, 355.0, 318.0], [359.0, 228.0, 303.0, 425.0, 784.0, 358.0, 113.0, 207.0, 740.0, 424.0], [373.0, 686.0, 160.0, 953.0, 382.0, 725.0, 641.0, 708.0, 100.0, 676.0], [728.0, 665.0, 709.0, 924.0, 874.0, 739.0, 620.0, 712.0, 425.0, 813.0], [174.0, 860.0, 700.0, 658.0, 783.0, 693.0, 423.0, 567.0, 378.0, 354.0], [739.0, 601.0, 332.0, 733.0, 591.0, 117.0, 2.0, 692.0, 988.0, 978.0], [662.0, 490.0, 265.0, 301.0, 802.0, 966.0, 348.0, 338.0, 890.0, 319.0], [961.0, 302.0, 369.0, 23.0, 381.0, 624.0, 864.0, 584.0, 645.0, 666.0], [854.0, 768.0, 326.0, 989.0, 386.0, 408.0, 706.0, 186.0, 352.0, 392.0], [776.0, 277.0, 928.0, 919.0, 609.0, 640.0, 661.0, 268.0, 462.0, 931.0], [739.0, 736.0, 94.0, 389.0, 655.0, 619.0, 79.0, 927.0, 761.0, 258.0], [117.0, 53.0, 309.0, 450.0, 98.0, 880.0, 467.0, 757.0, 210.0, 248.0], [509.0, 274.0, 712.0, 389.0, 362.0, 402.0, 639.0, 611.0, 448.0, 249.0], [907.0, 819.0, 96.0, 386.0, 10.0, 549.0, 508.0, 86.0, 620.0, 319.0], [160.0, 469.0, 488.0, 906.0, 670.0, 255.0, 653.0, 266.0, 7.0, 448.0], [778.0, 284.0, 455.0, 803.0, 621.0, 593.0, 161.0, 11.0, 720.0, 897.0], [27.0, 122.0, 494.0, 45.0, 259.0, 536.0, 962.0, 510.0, 995.0, 160.0], [864.0, 786.0, 994.0, 692.0, 260.0, 396.0, 133.0, 326.0, 108.0, 980.0], [57.0, 370.0, 218.0, 145.0, 350.0, 148.0, 566.0, 811.0, 701.0, 715.0], [868.0, 991.0, 904.0, 879.0, 952.0, 170.0, 601.0, 572.0, 159.0, 587.0], [97.0, 485.0, 543.0, 52.0, 946.0, 491.0, 848.0, 871.0, 159.0, 856.0], [756.0, 130.0, 515.0, 932.0, 961.0, 951.0, 14.0, 343.0, 693.0, 112.0], [980.0, 226.0, 877.0, 41.0, 463.0, 596.0, 589.0, 565.0, 968.0, 451.0], [317.0, 716.0, 411.0, 236.0, 888.0, 433.0, 297.0, 254.0, 596.0, 495.0], [902.0, 480.0, 563.0, 781.0, 775.0, 202.0, 946.0, 813.0, 540.0, 675.0], [890.0, 605.0, 296.0, 890.0, 90.0, 201.0, 174.0, 673.0, 256.0, 525.0], [78.0, 324.0, 335.0, 901.0, 979.0, 502.0, 972.0, 453.0, 117.0, 440.0], [780.0, 367.0, 373.0, 375.0, 613.0, 76.0, 349.0, 311.0, 321.0, 379.0], [743.0, 903.0, 780.0, 292.0, 359.0, 406.0, 385.0, 334.0, 253.0, 278.0], [159.0, 966.0, 69.0, 129.0, 681.0, 568.0, 107.0, 939.0, 683.0, 182.0], [663.0, 745.0, 610.0, 839.0, 253.0, 425.0, 466.0, 507.0, 201.0, 577.0], [918.0, 716.0, 994.0, 956.0, 680.0, 864.0, 574.0, 158.0, 437.0, 464.0], [706.0, 96.0, 3.0, 996.0, 63.0, 327.0, 94.0, 402.0, 822.0, 678.0], [759.0, 109.0, 694.0, 181.0, 766.0, 402.0, 515.0, 183.0, 852.0, 534.0], [413.0, 501.0, 598.0, 443.0, 119.0, 738.0, 392.0, 219.0, 827.0, 776.0], [72.0, 773.0, 76.0, 825.0, 378.0, 235.0, 868.0, 185.0, 992.0, 556.0], [849.0, 99.0, 824.0, 737.0, 256.0, 153.0, 847.0, 431.0, 657.0, 481.0], [780.0, 966.0, 953.0, 243.0, 413.0, 945.0, 107.0, 440.0, 794.0, 29.0], [248.0, 726.0, 446.0, 655.0, 525.0, 781.0, 615.0, 242.0, 67.0, 243.0], [823.0, 169.0, 994.0, 874.0, 688.0, 594.0, 435.0, 717.0, 893.0, 309.0], [431.0, 374.0, 350.0, 816.0, 37.0, 182.0, 464.0, 711.0, 80.0, 588.0], [410.0, 68.0, 968.0, 781.0, 890.0, 63.0, 800.0, 460.0, 339.0, 130.0], [922.0, 917.0, 75.0, 427.0, 379.0, 333.0, 769.0, 328.0, 383.0, 147.0], [926.0, 425.0, 409.0, 42.0, 720.0, 33.0, 591.0, 490.0, 469.0, 217.0], [348.0, 666.0, 149.0, 416.0, 566.0, 674.0, 879.0, 362.0, 2.0, 720.0], [651.0, 569.0, 111.0, 339.0, 809.0, 800.0, 761.0, 153.0, 588.0, 614.0], [421.0, 687.0, 811.0, 348.0, 383.0, 316.0, 233.0, 826.0, 649.0, 25.0], [285.0, 441.0, 893.0, 414.0, 986.0, 934.0, 320.0, 50.0, 247.0, 240.0], [136.0, 487.0, 773.0, 343.0, 74.0, 57.0, 358.0, 621.0, 158.0, 75.0], [587.0, 50.0, 186.0, 920.0, 887.0, 97.0, 257.0, 753.0, 148.0, 566.0], [386.0, 178.0, 911.0, 264.0, 758.0, 257.0, 964.0, 877.0, 626.0, 126.0], [721.0, 579.0, 854.0, 721.0, 815.0, 404.0, 419.0, 941.0, 690.0, 263.0], [89.0, 128.0, 34.0, 12.0, 246.0, 50.0, 798.0, 560.0, 113.0, 728.0], [362.0, 668.0, 492.0, 986.0, 248.0, 596.0, 94.0, 53.0, 120.0, 135.0], [173.0, 968.0, 191.0, 705.0, 191.0, 820.0, 596.0, 850.0, 765.0, 624.0], [440.0, 603.0, 947.0, 503.0, 403.0, 625.0, 278.0, 222.0, 102.0, 755.0], [324.0, 278.0, 780.0, 504.0, 359.0, 759.0, 16.0, 217.0, 527.0, 926.0], [813.0, 794.0, 599.0, 47.0, 903.0, 560.0, 331.0, 219.0, 36.0, 719.0], [697.0, 93.0, 702.0, 298.0, 729.0, 99.0, 336.0, 309.0, 683.0, 75.0], [457.0, 489.0, 103.0, 235.0, 714.0, 142.0, 281.0, 43.0, 934.0, 913.0], [189.0, 301.0, 404.0, 92.0, 233.0, 907.0, 651.0, 978.0, 99.0, 953.0], [989.0, 177.0, 30.0, 55.0, 744.0, 995.0, 926.0, 167.0, 598.0, 776.0], [293.0, 945.0, 798.0, 907.0, 198.0, 954.0, 477.0, 131.0, 186.0, 885.0], [997.0, 874.0, 486.0, 847.0, 52.0, 98.0, 245.0, 727.0, 102.0, 184.0], [752.0, 65.0, 374.0, 201.0, 230.0, 787.0, 661.0, 67.0, 599.0, 658.0], [738.0, 489.0, 820.0, 958.0, 38.0, 519.0, 1000.0, 947.0, 915.0, 867.0], [803.0, 492.0, 161.0, 732.0, 708.0, 413.0, 779.0, 158.0, 261.0, 624.0], [560.0, 798.0, 382.0, 542.0, 512.0, 581.0, 366.0, 695.0, 668.0, 523.0], [923.0, 390.0, 201.0, 465.0, 613.0, 815.0, 338.0, 431.0, 890.0, 159.0], [455.0, 484.0, 179.0, 470.0, 227.0, 309.0, 440.0, 774.0, 262.0, 974.0], [69.0, 996.0, 532.0, 683.0, 144.0, 117.0, 936.0, 754.0, 225.0, 190.0], [150.0, 576.0, 662.0, 491.0, 441.0, 341.0, 304.0, 727.0, 496.0, 383.0], [217.0, 666.0, 95.0, 41.0, 704.0, 329.0, 229.0, 327.0, 557.0, 963.0], [453.0, 732.0, 60.0, 959.0, 42.0, 221.0, 686.0, 421.0, 68.0, 453.0], [550.0, 416.0, 836.0, 845.0, 801.0, 187.0, 109.0, 797.0, 141.0, 46.0], [277.0, 367.0, 759.0, 864.0, 419.0, 411.0, 954.0, 834.0, 283.0, 841.0], [111.0, 851.0, 893.0, 155.0, 307.0, 819.0, 17.0, 465.0, 364.0, 868.0], [899.0, 599.0, 857.0, 878.0, 406.0, 152.0, 48.0, 205.0, 225.0, 65.0], [121.0, 530.0, 157.0, 519.0, 461.0, 144.0, 474.0, 505.0, 71.0, 440.0], [766.0, 535.0, 468.0, 678.0, 44.0, 202.0, 85.0, 195.0, 65.0, 486.0], [804.0, 624.0, 522.0, 453.0, 166.0, 861.0, 382.0, 134.0, 84.0, 127.0], [269.0, 305.0, 884.0, 726.0, 368.0, 699.0, 302.0, 660.0, 952.0, 212.0], [589.0, 975.0, 654.0, 498.0, 686.0, 304.0, 745.0, 912.0, 662.0, 313.0], [363.0, 943.0, 595.0, 255.0, 810.0, 469.0, 531.0, 295.0, 125.0, 631.0], [427.0, 994.0, 335.0, 563.0, 50.0, 709.0, 36.0, 430.0, 761.0, 67.0], [920.0, 181.0, 702.0, 137.0, 555.0, 77.0, 390.0, 778.0, 12.0, 200.0], [147.0, 597.0, 143.0, 759.0, 995.0, 450.0, 165.0, 252.0, 643.0, 23.0], [488.0, 312.0, 457.0, 445.0, 57.0, 61.0, 752.0, 806.0, 793.0, 930.0], [88.0, 574.0, 283.0, 533.0, 562.0, 182.0, 425.0, 212.0, 628.0, 47.0], [990.0, 171.0, 950.0, 508.0, 905.0, 595.0, 351.0, 482.0, 522.0, 506.0], [637.0, 417.0, 614.0, 920.0, 174.0, 209.0, 74.0, 204.0, 487.0, 284.0], [585.0, 402.0, 271.0, 88.0, 945.0, 597.0, 426.0, 46.0, 202.0, 809.0], [756.0, 25.0, 475.0, 625.0, 417.0, 516.0, 218.0, 233.0, 550.0, 925.0], [206.0, 496.0, 447.0, 869.0, 417.0, 655.0, 614.0, 480.0, 826.0, 794.0], [790.0, 190.0, 340.0, 90.0, 8.0, 143.0, 161.0, 957.0, 739.0, 916.0], [959.0, 254.0, 567.0, 290.0, 544.0, 478.0, 135.0, 190.0, 909.0, 97.0], [880.0, 970.0, 971.0, 734.0, 805.0, 509.0, 52.0, 842.0, 400.0, 395.0], [193.0, 672.0, 576.0, 942.0, 367.0, 261.0, 707.0, 531.0, 74.0, 495.0], [353.0, 956.0, 130.0, 260.0, 359.0, 14.0, 2.0, 527.0, 353.0, 101.0], [609.0, 387.0, 980.0, 579.0, 981.0, 242.0, 426.0, 931.0, 21.0, 266.0], [539.0, 853.0, 559.0, 405.0, 150.0, 599.0, 528.0, 144.0, 958.0, 382.0], [900.0, 485.0, 291.0, 455.0, 633.0, 73.0, 112.0, 103.0, 657.0, 716.0], [267.0, 430.0, 938.0, 377.0, 642.0, 278.0, 856.0, 331.0, 766.0, 912.0], [356.0, 226.0, 484.0, 579.0, 864.0, 441.0, 757.0, 556.0, 295.0, 609.0], [244.0, 261.0, 129.0, 448.0, 706.0, 401.0, 608.0, 275.0, 127.0, 813.0], [769.0, 29.0, 893.0, 613.0, 146.0, 929.0, 54.0, 273.0, 915.0, 45.0], [943.0, 186.0, 144.0, 949.0, 58.0, 750.0, 362.0, 469.0, 188.0, 179.0], [619.0, 824.0, 727.0, 539.0, 507.0, 884.0, 766.0, 246.0, 404.0, 656.0], [14.0, 479.0, 648.0, 831.0, 691.0, 627.0, 628.0, 502.0, 102.0, 902.0], [732.0, 596.0, 383.0, 924.0, 313.0, 175.0, 448.0, 337.0, 282.0, 856.0], [741.0, 606.0, 949.0, 329.0, 801.0, 99.0, 735.0, 717.0, 857.0, 308.0], [805.0, 775.0, 213.0, 90.0, 529.0, 517.0, 617.0, 759.0, 100.0, 240.0], [655.0, 199.0, 501.0, 415.0, 647.0, 588.0, 178.0, 817.0, 21.0, 811.0], [158.0, 575.0, 608.0, 53.0, 367.0, 859.0, 948.0, 758.0, 15.0, 940.0], [146.0, 16.0, 207.0, 823.0, 704.0, 666.0, 975.0, 373.0, 201.0, 117.0], [850.0, 739.0, 392.0, 568.0, 664.0, 683.0, 313.0, 58.0, 906.0, 556.0], [903.0, 907.0, 93.0, 473.0, 78.0, 711.0, 961.0, 417.0, 862.0, 34.0], [724.0, 291.0, 393.0, 296.0, 419.0, 402.0, 365.0, 950.0, 259.0, 810.0], [527.0, 10.0, 434.0, 540.0, 722.0, 941.0, 513.0, 722.0, 484.0, 706.0], [19.0, 901.0, 470.0, 157.0, 136.0, 215.0, 183.0, 495.0, 491.0, 325.0], [912.0, 889.0, 669.0, 204.0, 473.0, 541.0, 588.0, 439.0, 802.0, 8.0], [20.0, 601.0, 278.0, 649.0, 685.0, 72.0, 362.0, 648.0, 945.0, 366.0], [41.0, 359.0, 397.0, 992.0, 354.0, 894.0, 697.0, 346.0, 735.0, 332.0], [563.0, 977.0, 845.0, 295.0, 952.0, 784.0, 134.0, 592.0, 598.0, 228.0], [386.0, 42.0, 233.0, 170.0, 55.0, 353.0, 351.0, 891.0, 901.0, 651.0], [436.0, 59.0, 416.0, 978.0, 373.0, 878.0, 220.0, 383.0, 431.0, 100.0], [267.0, 776.0, 564.0, 494.0, 292.0, 887.0, 166.0, 746.0, 843.0, 435.0], [378.0, 496.0, 141.0, 789.0, 37.0, 174.0, 356.0, 252.0, 850.0, 243.0], [716.0, 531.0, 970.0, 499.0, 822.0, 110.0, 835.0, 46.0, 8.0, 209.0], [419.0, 635.0, 411.0, 371.0, 385.0, 852.0, 89.0, 862.0, 872.0, 466.0], [981.0, 108.0, 745.0, 76.0, 694.0, 334.0, 60.0, 165.0, 472.0, 5.0], [379.0, 205.0, 583.0, 607.0, 233.0, 161.0, 184.0, 284.0, 131.0, 890.0], [833.0, 943.0, 771.0, 459.0, 779.0, 224.0, 353.0, 98.0, 428.0, 940.0], [340.0, 191.0, 40.0, 908.0, 176.0, 925.0, 636.0, 116.0, 490.0, 825.0], [482.0, 995.0, 962.0, 490.0, 732.0, 105.0, 798.0, 651.0, 48.0, 1.0]]

==== Results ====
Cost: 58097.0
Runtime: 692.3740639686584
Vars:
x_0:0.0
x_1:0.0
x_2:0.0
x_3:0.0
x_4:0.0
x_5:0.0
x_6:0.0
x_7:0.0
x_8:0.0
x_9:1.0
x_10:0.0
x_11:0.0
x_12:0.0
x_13:0.0
x_14:0.0
x_15:0.0
x_16:1.0
x_17:0.0
x_18:0.0
x_19:0.0
x_20:0.0
x_21:0.0
x_22:0.0
x_23:0.0
x_24:0.0
x_25:1.0
x_26:0.0
x_27:0.0
x_28:0.0
x_29:0.0
x_30:0.0
x_31:0.0
x_32:0.0
x_33:0.0
x_34:0.0
x_35:0.0
x_36:1.0
x_37:0.0
x_38:0.0
x_39:0.0
x_40:0.0
x_41:0.0
x_42:0.0
x_43:0.0
x_44:1.0
x_45:0.0
x_46:1.0
x_47:0.0
x_48:0.0
x_49:0.0
x_50:0.0
x_51:1.0
x_52:1.0
x_53:0.0
x_54:1.0
x_55:1.0
x_56:1.0
x_57:0.0
x_58:0.0
x_59:0.0
x_60:1.0
x_61:0.0
x_62:0.0
x_63:0.0
x_64:0.0
x_65:1.0
x_66:1.0
x_67:0.0
x_68:0.0
x_69:0.0
x_70:1.0
x_71:1.0
x_72:0.0
x_73:0.0
x_74:0.0
x_75:0.0
x_76:1.0
x_77:0.0
x_78:0.0
x_79:0.0
x_80:0.0
x_81:0.0
x_82:0.0
x_83:0.0
x_84:0.0
x_85:0.0
x_86:0.0
x_87:1.0
x_88:0.0
x_89:1.0
x_90:0.0
x_91:0.0
x_92:1.0
x_93:0.0
x_94:0.0
x_95:0.0
x_96:1.0
x_97:0.0
x_98:1.0
x_99:1.0
x_100:0.0
x_101:0.0
x_102:0.0
x_103:1.0
x_104:0.0
x_105:0.0
x_106:0.0
x_107:0.0
x_108:0.0
x_109:0.0
x_110:0.0
x_111:1.0
x_112:0.0
x_113:0.0
x_114:1.0
x_115:1.0
x_116:0.0
x_117:0.0
x_118:0.0
x_119:0.0
x_120:0.0
x_121:1.0
x_122:0.0
x_123:0.0
x_124:0.0
x_125:0.0
x_126:1.0
x_127:0.0
x_128:1.0
x_129:1.0
x_130:0.0
x_131:1.0
x_132:1.0
x_133:1.0
x_134:1.0
x_135:0.0
x_136:0.0
x_137:0.0
x_138:1.0
x_139:0.0
x_140:1.0
x_141:0.0
x_142:1.0
x_143:0.0
x_144:1.0
x_145:0.0
x_146:0.0
x_147:0.0
x_148:1.0
x_149:1.0
x_150:1.0
x_151:1.0
x_152:1.0
x_153:0.0
x_154:0.0
x_155:0.0
x_156:0.0
x_157:0.0
x_158:1.0
x_159:0.0
x_160:0.0
x_161:0.0
x_162:0.0
x_163:1.0
x_164:1.0
x_165:1.0
x_166:0.0
x_167:1.0
x_168:1.0
x_169:0.0
x_170:1.0
x_171:0.0
x_172:1.0
x_173:1.0
x_174:0.0
x_175:0.0
x_176:1.0
x_177:0.0
x_178:1.0
x_179:0.0
x_180:0.0
x_181:0.0
x_182:0.0
x_183:0.0
x_184:0.0
x_185:0.0
x_186:0.0
x_187:1.0
x_188:0.0
x_189:0.0
x_190:0.0
x_191:0.0
x_192:1.0
x_193:1.0
x_194:0.0
x_195:0.0
x_196:0.0
x_197:0.0
x_198:0.0
x_199:1.0
x_200:0.0
x_201:0.0
x_202:0.0
x_203:1.0
x_204:0.0
x_205:0.0
x_206:0.0
x_207:0.0
x_208:0.0
x_209:1.0
x_210:0.0
x_211:0.0
x_212:0.0
x_213:0.0
x_214:0.0
x_215:0.0
x_216:0.0
x_217:1.0
x_218:0.0
x_219:0.0
x_220:0.0
x_221:1.0
x_222:0.0
x_223:0.0
x_224:0.0
x_225:0.0
x_226:1.0
x_227:1.0
x_228:0.0
x_229:0.0
x_230:0.0
x_231:0.0
x_232:0.0
x_233:0.0
x_234:0.0
x_235:0.0
x_236:0.0
x_237:0.0
x_238:0.0
x_239:0.0
x_240:0.0
x_241:0.0
x_242:1.0
x_243:1.0
x_244:0.0
x_245:0.0
x_246:1.0
x_247:0.0
x_248:1.0
x_249:0.0